<?xml version="1.0" encoding="UTF-8" standalone="no"?>
<!-- Created with Inkscape (http://www.inkscape.org/) -->

<svg
   xmlns:dc="http://purl.org/dc/elements/1.1/"
   xmlns:cc="http://creativecommons.org/ns#"
   xmlns:rdf="http://www.w3.org/1999/02/22-rdf-syntax-ns#"
   xmlns:svg="http://www.w3.org/2000/svg"
   xmlns="http://www.w3.org/2000/svg"
   xmlns:sodipodi="http://sodipodi.sourceforge.net/DTD/sodipodi-0.dtd"
   xmlns:inkscape="http://www.inkscape.org/namespaces/inkscape"
   width="120mm"
   height="120mm"
   viewBox="-60 -60 120 120"
   sodipodi:docname="RD.svg"
   version="1.1"
   id="svg47"
   inkscape:version="0.92.3 (2405546, 2018-03-11)">
  <defs
     id="defs49" />
  <sodipodi:namedview
     pagecolor="#ffffff"
     bordercolor="#666666"
     borderopacity="1.0"
     inkscape:pageopacity="0.0"
     inkscape:pageshadow="2"
     inkscape:zoom="1"
     inkscape:cx="191.77165"
     inkscape:cy="226.77165"
     inkscape:document-units="mm"
     inkscape:current-layer="Template"
     showgrid="false"
     units="mm"
     showguides="true"
     inkscape:guide-bbox="true"
     inkscape:snap-global="true"
     inkscape:snap-bbox="true"
     inkscape:snap-bbox-midpoints="true"
     inkscape:window-width="1533"
     inkscape:window-height="845"
     inkscape:window-x="67"
     inkscape:window-y="27"
     inkscape:window-maximized="1"
     inkscape:bbox-paths="true"
     inkscape:bbox-nodes="true"
     inkscape:snap-bbox-edge-midpoints="true"
     inkscape:snap-grids="true"
     id="namedview37">
    <sodipodi:guide
       orientation="1,0"
       position="226.771653543,226.771653543"
       id="guide2827" />
    <sodipodi:guide
       orientation="0,1"
       position="226.771653543,226.771653543"
       id="guide2829" />
    <inkscape:grid
       type="xygrid"
       id="grid3072"
       empspacing="10"
       visible="true"
       enabled="true"
       snapvisiblegridlinesonly="true"
       units="mm"
       dotted="false"
       spacingx="0.1mm"
       spacingy="0.1mm" />
  </sodipodi:namedview>
  <metadata
     id="metadata2822">
    <rdf:RDF>
      <cc:Work
         rdf:about="">
        <dc:format>image/svg+xml</dc:format>
        <dc:type
           rdf:resource="http://purl.org/dc/dcmitype/StillImage" />
        <dc:title></dc:title>
      </cc:Work>
    </rdf:RDF>
  </metadata>
  <g
     inkscape:label="Layer 1"
     inkscape:groupmode="layer"
     id="Template"
     style="fill:none;stroke:black;stroke-width:0.05">
    <path
       style="opacity:1;fill:#008000;fill-opacity:1;stroke-width:0.50000006;stroke-miterlimit:4;stroke-dasharray:1.50000018, 1.50000018;stroke-dashoffset:0"
       d=""
       id="path350"
       inkscape:connector-curvature="0"
       transform="matrix(0.26458333,0,0,0.26458333,-60,-60)" />
    <path
       style="opacity:1;fill:#008000;fill-opacity:1;stroke-width:0.50000006;stroke-miterlimit:4;stroke-dasharray:1.50000018, 1.50000018;stroke-dashoffset:0"
       d=""
       id="path352"
       inkscape:connector-curvature="0"
       transform="matrix(0.26458333,0,0,0.26458333,-60,-60)" />
    <g
       id="g82"
       transform="rotate(180,0.39104667,-0.04249833)">
      <circle
         id="circle40"
         r="60"
         cy="0"
         cx="0" />
      <circle
         id="circle42"
         r="19"
         cy="0"
         cx="0" />
      <circle
         id="circle44"
         r="7.5"
         cy="0"
         cx="0" />
      <path
         inkscape:connector-curvature="0"
         d="m -46.173386,-8.4929149 c 4.199878,0.042026 8.404193,-0.091961 12.602661,0.065495 1.654203,0.062039 3.30533,0.1890184 4.957994,0.2835275 8.489521,0.7119223 16.913513,2.0133469 25.371139,3.0144746 3.72397334,0.4956546 7.4766963,0.5882429 11.2273105,0.6241045 2.3399485,0.01823 4.6955365,0.043751 7.0107065,-0.3525097 1.211525,-0.2073619 1.45895,-0.3179207 2.602357,-0.6614424 0.938856,-0.3028977 1.761906,-0.808318 2.566694,-1.3613262 0,0 -2.863874,2.7475814 -2.863874,2.7475814 v 0 c -0.838136,0.5191205 -1.692092,0.9964182 -2.647151,1.2749239 -1.168156,0.3228605 -1.410136,0.4242858 -2.643063,0.6157066 -2.3306719,0.3618494 -4.6953881,0.3287845 -7.0462189,0.3114093 -3.7605864,-0.042593 -7.5217813,-0.1569218 -11.2548722,-0.6567937 -8.4508389,-1.0064248 -16.8697429,-2.3050421 -25.3552559,-2.995549 -1.649124,-0.090337 -3.296833,-0.2120159 -4.947377,-0.2710074 -4.197388,-0.1500161 -8.400241,-0.019976 -12.598911,-0.061098 0,0 3.017861,-2.5774967 3.017861,-2.5774964 z"
         id="path57"
         style="opacity:0;fill:#2b0000;fill-opacity:1;stroke-width:0.13229167;stroke-miterlimit:4;stroke-dasharray:0.39687504, 0.39687504;stroke-dashoffset:0" />
      <path
         inkscape:connector-curvature="0"
         d="m -20.208043,-7.6915793 c -0.01725,1.6695393 0.178742,3.33239 0.411575,4.9827629 0.114374,0.430194 0.0786,1.3869987 0.49457,1.6954447 0.156342,0.11592981 0.459573,0.13814952 0.626782,0.16616625 1.996215,0.0623332 3.981937,0.22050639 5.960663,0.49421255 1.369256,0.1673516 2.725113,0.40869658 4.0779487,0.67408689 0,0 -3.0663967,2.51956091 -3.0663967,2.51956091 v 0 c -1.348779,-0.2553838 -2.700305,-0.4893654 -4.063502,-0.6566059 -1.253472,-0.1627346 -2.499434,-0.2924466 -3.761621,-0.3648524 -0.134996,-0.00775 -1.45015,-0.06327 -1.670164,-0.083894 -0.187124,-0.017542 -0.371996,-0.053938 -0.557993,-0.080907 -0.146661,-0.048114 -0.300699,-0.077832 -0.439983,-0.1443434 -0.790898,-0.3776715 -0.834475,-1.34314405 -0.954474,-2.09742614 -0.240615,-1.66577436 -0.449863,-3.34463226 -0.44132,-5.03053876 0,0 3.383915,-2.0736665 3.383915,-2.0736666 z"
         id="path59"
         style="opacity:0;fill:#2b0000;fill-opacity:1;stroke-width:0.13229167;stroke-miterlimit:4;stroke-dasharray:0.39687504, 0.39687504;stroke-dashoffset:0" />
      <path
         inkscape:connector-curvature="0"
         d="m -47.374054,-11.881987 c 2.261257,0.657437 4.472724,1.486816 6.745537,2.1050518 0.740179,0.2013374 1.490309,0.3641249 2.235463,0.54619 5.288434,1.0838603 10.698618,1.2996174 16.078533,1.4702631 2.644635,0.070842 5.290236,0.082172 7.935635,0.086654 0,0 -3.018401,2.5768643 -3.018401,2.5768643 v 0 c -2.648045,-0.00661 -5.296299,-0.020532 -7.943477,-0.095866 -5.399455,-0.1806443 -10.830423,-0.4100619 -16.131733,-1.5343161 -0.74955,-0.1874997 -1.503803,-0.3571081 -2.248649,-0.5624963 -2.252874,-0.6212204 -4.439402,-1.4691333 -6.702587,-2.0525739 0,0 3.049679,-2.5397699 3.049679,-2.5397709 z"
         id="path61"
         style="opacity:0;fill:#2b0000;fill-opacity:1;stroke-width:0.13229167;stroke-miterlimit:4;stroke-dasharray:0.39687504, 0.39687504;stroke-dashoffset:0" />
      <path
         inkscape:connector-curvature="0"
         d="m -46.067046,-33.892915 c 2.275176,-0.04605 4.544769,0.04698 6.816637,0.15795 3.849073,0.263249 7.678634,0.735101 11.521794,1.062483 4.418698,0.286483 8.797279,0.952979 13.177723,1.571437 2.935862,0.413314 5.8866329,0.710647 8.8465531,0.876785 0.854493,0.03645 0.4463388,0.02267 1.224399,0.04319 0,0 -3.0256691,2.568326 -3.0256691,2.568326 v 0 c -0.7830026,-0.02687 -0.3724804,-0.01021 -1.2315057,-0.05158 -2.9669393,-0.178361 -5.9244733,-0.484823 -8.8675523,-0.90187 -4.375198,-0.619802 -8.75071,-1.266261 -13.163892,-1.554869 -3.838763,-0.335753 -7.665536,-0.802288 -11.512084,-1.050956 -2.267645,-0.107717 -4.533714,-0.182653 -6.804265,-0.143394 0,0 3.017862,-2.577497 3.017862,-2.577497 z"
         id="path63"
         style="opacity:0;fill:#2b0000;fill-opacity:1;stroke-width:0.13229167;stroke-miterlimit:4;stroke-dasharray:0.39687504, 0.39687504;stroke-dashoffset:0" />
      <path
         inkscape:connector-curvature="0"
         d="m -12.944577,-21.059051 c 2.09699,2.275556 4.0103635,4.709691 6.03155,7.051413 0.4868227,0.54302 0.9613053,1.097362 1.4604682,1.629063 0.1880897,0.20035 2.8349019,2.8791189 3.0521539,3.0986781 1.2064815,1.21929 2.42030252,2.4215487 3.6764278,3.5894645 1.1415553,1.0506181 2.3168715,2.0689146 3.4261424,3.1538783 0.6337406,0.6449245 0.3160448,0.318979 0.9529815,0.9779423 0,0 -3.2146636,2.32742576 -3.2146636,2.32742576 v 0 C 1.8073908,0.11476662 2.1227874,0.43750801 1.494447,-0.19956367 0.38266518,-1.2779207 -0.78592002,-2.2985244 -1.9264144,-3.3462135 -3.1848733,-4.519458 -4.4025307,-5.7259898 -5.6126714,-6.9491611 -5.9160929,-7.2558529 -8.4073116,-9.7767076 -8.6760569,-10.0634 c -0.5004593,-0.533878 -0.9765479,-1.090091 -1.4648201,-1.635138 -2.026195,-2.349309 -3.949063,-4.786923 -6.047262,-7.073532 0,0 3.243562,-2.286981 3.243562,-2.286981 z"
         id="path65"
         style="opacity:0;fill:#2b0000;fill-opacity:1;stroke-width:0.13229167;stroke-miterlimit:4;stroke-dasharray:0.39687504, 0.39687504;stroke-dashoffset:0" />
      <path
         inkscape:connector-curvature="0"
         d="m -50.899709,-51.580763 c -0.07478,2.152055 0.391162,4.261684 0.834943,6.352992 0.262737,1.239388 0.503028,2.482292 0.723631,3.729745 0,0 -3.347437,2.132051 -3.347437,2.132051 v 0 c -0.215926,-1.243802 -0.455058,-2.482161 -0.715787,-3.717479 -0.453169,-2.113671 -0.942294,-4.247447 -0.879266,-6.423642 0,0 3.383916,-2.073667 3.383916,-2.073667 z"
         id="path67"
         style="opacity:0;fill:#2b0000;fill-opacity:1;stroke-width:0.13229167;stroke-miterlimit:4;stroke-dasharray:0.39687504, 0.39687504;stroke-dashoffset:0" />
      <path
         inkscape:connector-curvature="0"
         d="m -97.432583,-27.380722 c 0.520901,0.936558 1.409094,1.64633 2.214272,2.320639 0.64839,0.543004 1.303358,1.079008 1.978472,1.58841 1.831551,1.381985 4.103767,2.9024 5.972228,4.182607 0,0 -3.167243,2.391558 -3.167243,2.391558 v 0 c -1.931159,-1.325255 -4.109519,-2.78172 -5.99042,-4.206893 -1.279716,-0.96965 -3.011639,-2.297507 -4.026186,-3.602344 -0.12116,-0.155827 -0.20402,-0.337969 -0.30603,-0.506953 0,0 3.324907,-2.167024 3.324907,-2.167024 z"
         id="path69"
         style="opacity:0;fill:#2b0000;fill-opacity:1;stroke-width:0.13229167;stroke-miterlimit:4;stroke-dasharray:0.39687504, 0.39687504;stroke-dashoffset:0" />
      <path
         inkscape:connector-curvature="0"
         d="m -58.004945,-9.0220816 c 0.65344,0.030401 1.318461,-0.063548 1.964695,0.049482 0.396081,0.1099317 0.801302,0.1709341 1.210626,0.2000991 0.05345,0.0032 0.107464,0.017965 0.16036,0.00963 0.10516,-0.016589 0.198154,-0.079677 0.301399,-0.1056375 0.18338,-0.046114 0.37039,-0.078528 0.557391,-0.1049232 0.443939,-0.045096 0.890855,-0.045569 1.336606,-0.04985 0.42786,-0.025876 0.845675,-0.1579775 1.274441,-0.215101 0.402938,-0.046387 0.808492,-0.047638 1.213457,-0.049927 0.654196,0.041481 1.295585,-0.067424 1.943632,-0.135419 0.980385,-0.090707 1.953153,-0.2529337 2.924942,-0.4099798 1.063659,-0.202224 2.110919,-0.475702 3.165933,-0.716364 0.974179,-0.264012 1.968224,-0.439926 2.939572,-0.71513 0.824776,-0.184639 1.633148,-0.427725 2.449426,-0.64453 0.915722,-0.260678 1.832359,-0.520488 2.753366,-0.76223 0.798885,-0.153858 1.587166,-0.359939 2.391086,-0.488834 0.556356,-0.07978 1.119003,-0.09406 1.680144,-0.09836 0.528185,-0.120348 1.064559,-0.188323 1.604113,-0.228349 0.612304,-0.04949 1.216076,-0.198395 1.815677,-0.333499 0.71909,-0.142391 1.42666,-0.348872 2.113529,-0.604049 0.609107,-0.146103 1.159819,-0.418166 1.720741,-0.682562 0.437793,-0.117176 0.743905,-0.459882 1.152165,-0.632296 0.064,-0.03641 0.125884,-0.07683 0.192011,-0.109225 0.136517,-0.06687 0.52311,-0.308962 0.398127,-0.22243 -1.009309,0.698789 -4.008501,2.835238 -3.025037,2.100525 0.100676,-0.07521 8.335605,-5.832507 0.413623,-0.292955 1.517827,-1.177991 3.112309,-2.2459 4.686683,-3.349723 -5.405466,4.194805 -3.047883,2.097709 -1.836951,1.112711 0.594066,-0.477846 1.133999,-1.016823 1.69482,-1.531932 0.640577,-0.560197 1.295918,-1.104017 1.90318,-1.700784 0.408921,-0.433362 0.76763,-0.912519 1.103103,-1.404173 0.256588,-0.456499 0.572878,-0.872797 0.869437,-1.302742 0.287724,-0.417939 0.597757,-0.819987 0.883655,-1.239052 0.08207,-0.221917 0.2946,-0.338228 0.412213,-0.532265 0.06218,-0.304739 0.153882,-0.596487 0.2487,-0.893204 0.217887,-0.442042 0.367684,-0.912905 0.54573,-1.371595 0.221485,-0.579718 0.401772,-1.172004 0.583091,-1.765017 0.230482,-0.676873 0.48055,-1.347555 0.740199,-2.013796 0.419878,-0.936202 0.771239,-1.900563 1.174874,-2.843456 0.33868,-0.850092 0.7381108,-1.673431 1.1116839,-2.508329 0.3124042,-0.673928 0.5398876,-1.381671 0.7781952,-2.083879 0.227457,-0.642403 0.4274502,-1.293124 0.6046523,-1.95096 0.2207286,-0.827715 0.4128981,-1.662159 0.6125315,-2.495072 0.1555618,-0.865124 0.3975762,-1.710479 0.5905553,-2.566991 0.1675104,-0.927623 0.3252259,-1.856828 0.4957234,-2.783893 0.1476163,-0.904735 0.3407145,-1.799684 0.4517601,-2.710152 0.039939,-0.782855 0.1585251,-1.556795 0.2497402,-2.334394 0.041182,-0.758946 0.1635284,-1.508127 0.2587493,-2.261146 0.048387,-0.607229 0.1899549,-1.200699 0.2931848,-1.799705 0.048466,-0.281177 0.079176,-0.564347 0.089612,-0.849361 0.021087,-0.190633 0.011615,-0.329226 -0.068731,-0.497851 -0.1318842,-0.287662 -0.1805252,-0.589354 -0.1331516,-0.901617 0.058481,-0.251774 0.1325034,-0.499909 0.1722676,-0.755692 0.013785,-0.08995 0.018759,-0.180972 0.030745,-0.271089 0,0 3.3874259,-2.067925 3.3874259,-2.067925 v 0 c 0.00519,0.101773 -0.00275,0.203586 -0.010186,0.305139 -0.02241,0.268274 -0.063439,0.536122 -0.1509422,0.791854 -0.081494,0.255762 -0.1178374,0.412319 -0.00942,0.674836 0.1076748,0.217939 0.2095182,0.404722 0.1705742,0.656296 -0.0027,0.299458 -0.012382,0.598755 -0.062294,0.894852 -0.085754,0.598846 -0.2475547,1.184659 -0.3005799,1.787254 -0.086077,0.753557 -0.2335821,1.498198 -0.2608739,2.257588 -0.079751,0.779799 -0.2282216,1.550505 -0.2489543,2.335713 -0.097062,0.920201 -0.2836466,1.82181 -0.438322,2.732818 -0.1666955,0.930802 -0.342728,1.859865 -0.4897914,2.794008 -0.1722993,0.863778 -0.4467489,1.703181 -0.5863907,2.574132 -0.191688,0.83893 -0.398616,1.67346 -0.6044618,2.509012 -0.1888411,0.66177 -0.3567853,1.32714 -0.5907035,1.975372 -0.2604346,0.700679 -0.4495588,1.427743 -0.7645532,2.108144 -0.3585765,0.842576 -0.783328,1.654112 -1.1108875,2.509757 -0.4238916,0.931858 -0.745789,1.904415 -1.1817641,2.831139 -0.2682637,0.655265 -0.4979617,1.324541 -0.7576132,1.983113 -0.1767416,0.601919 -0.3558513,1.199946 -0.5692034,1.789435 -0.1727597,0.467913 -0.3467841,0.935985 -0.5304843,1.398868 -0.1673647,0.243689 -0.2402177,0.555165 -0.2769337,0.843082 -0.04799,0.378013 -0.133133,0.378645 -0.357097,0.631756 -0.273998,0.431094 -0.579517,0.835517 -0.878838,1.248077 -0.29846,0.42491 -0.61355,0.836347 -0.880033,1.282962 -0.295137,0.53168 -0.68694,1.003871 -1.064641,1.477303 -0.567902,0.639511 -1.244793,1.169982 -1.887744,1.731211 -0.580316,0.495869 -1.102616,1.054529 -1.688258,1.545061 -1.472539,1.223672 -2.837069,2.462279 -4.57436,3.408508 5.589484,-3.93509 2.943912,-2.129629 1.737164,-1.146064 -9.508403,6.6603112 -0.101,0.07288 -0.416849,0.286364 -1.149582,0.777012 -2.268077,1.599168 -3.411429,2.385319 -0.184972,0.127183 -0.420404,0.186153 -0.605422,0.315519 -0.370266,0.241649 -0.748834,0.460083 -1.163259,0.620469 -0.562949,0.272751 -1.158838,0.452268 -1.751184,0.649605 -0.704856,0.225988 -1.415386,0.43344 -2.143787,0.570539 -0.609714,0.134035 -1.225465,0.255598 -1.849551,0.295056 -0.542899,0.05783 -1.078169,0.171053 -1.622891,0.206599 -0.548846,0.01508 -1.09856,0.04391 -1.639453,0.145098 -0.793042,0.151344 -1.581737,0.330361 -2.367275,0.515506 -0.917379,0.2547143 -1.837966,0.4977394 -2.752263,0.7634552 -0.812891,0.2304362 -1.632788,0.4318264 -2.450706,0.6431094 -0.979331,0.2502879 -1.970281,0.4504849 -2.9486,0.7050696 -1.05689,0.2516717 -2.113322,0.508209 -3.183972,0.6960579 -0.975565,0.1583558 -1.954657,0.3011435 -2.938811,0.3941763 -0.654977,0.072768 -1.308033,0.1294262 -1.968046,0.1071827 -0.393502,0.00847 -0.787715,0.024156 -1.176214,0.092789 -0.434198,0.0797 -0.86619,0.1922172 -1.311314,0.1726724 -0.432859,0.00881 -0.868714,0.015663 -1.295339,0.097256 -0.360596,0.076054 -0.71767,0.1888701 -1.089252,0.1194884 -0.408954,-0.050324 -0.809937,-0.1376759 -1.215756,-0.2062374 -0.643939,-0.035187 -1.289983,-0.00238 -1.934591,-0.013811 0,0 3.017861,-2.5774968 3.017861,-2.5774968 z"
         id="path308"
         style="opacity:1;fill:#2b0000;fill-opacity:1;stroke-width:0.13229167;stroke-miterlimit:4;stroke-dasharray:0.39687504, 0.39687504;stroke-dashoffset:0" />
      <path
         inkscape:connector-curvature="0"
         d="m -58.218599,11.243332 c 0.822425,0.30762 1.62981,0.652246 2.471239,0.905261 0.744675,0.248933 1.483593,0.515033 2.230709,0.756595 0.704636,0.224814 1.402388,0.486987 2.122611,0.657897 0.696504,0.169304 1.390865,0.309949 2.106071,0.373306 0.864585,0.156855 1.737745,0.241421 2.614384,0.288774 0.859909,0.151442 1.734488,0.182314 2.597073,0.306335 0.868249,0.147743 1.747186,0.205417 2.626137,0.237624 0.903136,0.02508 1.806708,0.02394 2.710109,0.024 0.854814,0.0099 1.702471,0.144923 2.556053,0.200414 1.146818,0.04405 2.296241,0.08997 3.442551,0.02252 1.105744,-0.04377 2.198346,-0.190722 3.293869,-0.334222 0.871585,-0.135059 1.75967,-0.215963 2.622828,-0.400012 0.737706,-0.11397 1.465768,-0.271532 2.199836,-0.405001 0.662019,-0.106593 1.309325,-0.287369 1.961382,-0.44214 0.775155,-0.127079 1.551033,-0.258193 2.331006,-0.356576 1.079881,-0.12265 2.156931,-0.273569 3.233983,-0.421955 1.303216,-0.189621 2.590094,-0.466328 3.883121,-0.711512 1.047771,-0.261117 2.108115,-0.476845 3.150465,-0.757886 0.7183303,-0.205676 1.4589625,-0.286321 2.1875192,-0.443738 0.7610051,-0.253457 1.5188088,-0.526378 2.2447223,-0.8711854 0.915453,-0.4307734 1.8540809,-0.802386 2.7601597,-1.2554744 0.74109,-0.3906361 1.4618811,-0.8143478 2.16844828,-1.2639569 C 0.69337861,6.6439715 3.0198466,4.8871567 -2.6777385,8.8555918 6.2080255,2.6767799 -2.2791992,8.5863915 -2.3781269,8.6547281 -2.4331153,8.6927143 -2.2723492,8.5729136 -2.2217106,8.529297 -2.0624711,8.3921476 -1.9188976,8.2359561 -1.7730725,8.0851092 -1.3016247,7.5812076 -0.75764929,7.1532441 -0.24119057,6.6973459 0.3070552,6.2364152 0.83392792,5.750881 1.3590941,5.2639842 1.6808459,5.0127756 1.9336077,4.6854331 2.2377806,4.4178414 2.5292509,4.0838738 2.7453388,3.6800799 2.9693138,3.2971537 3.3057606,2.7170786 3.6496449,2.1406838 3.9974873,1.5671439 4.3500658,0.94408719 4.6875709,0.31257441 5.0470894,-0.30670404 5.343719,-0.82434016 5.6160123,-1.3549197 5.8809211,-1.8893172 6.2066655,-2.6137622 6.5756349,-3.3169559 6.9251124,-4.029836 7.3357537,-4.8228584 7.752364,-5.6116501 8.0796932,-6.4435054 8.3268961,-7.1482389 8.4761555,-7.8768141 8.6234067,-8.6066408 8.7842204,-9.3128454 8.888199,-10.028956 9.0527884,-10.734494 c 0.2325026,-0.830106 0.436708,-1.666621 0.6366642,-2.505136 0.241681,-0.970166 0.4835764,-1.940226 0.7330384,-2.908432 0.222449,-0.962993 0.43102,-1.929019 0.6819,-2.885138 0.262533,-0.975458 0.443709,-1.969548 0.630299,-2.96145 0.197397,-1.155697 0.38445,-2.313517 0.512564,-3.479194 0.07409,-1.195557 0.268139,-2.376784 0.44161,-3.560313 0.156105,-1.072229 0.197991,-2.15542 0.222486,-3.237161 0.01646,-0.974039 0.01339,-1.948268 0.01228,-2.922406 0.0093,-0.914268 -0.02717,-1.8295 0.02148,-2.742782 0.0644,-0.905138 0.182668,-1.802732 0.315193,-2.699836 0.13494,-0.846928 0.136122,-1.705709 0.20412,-2.558404 0.07962,-0.896924 0.199679,-1.787772 0.327803,-2.678716 0.162904,-0.836292 0.290957,-1.678687 0.452274,-2.515219 0.124002,-0.743682 0.320132,-1.471028 0.428138,-2.217462 0.08958,-0.626631 0.247322,-1.238126 0.413147,-1.847715 0.136771,-0.52937 0.362357,-1.028032 0.553254,-1.538534 0.11933,-0.423779 0.267369,-0.839263 0.365014,-1.26885 0.08194,-0.379422 0.211995,-0.745216 0.303707,-1.122412 0.104982,-0.243667 0.201843,-0.487749 0.272524,-0.74352 0.0109,-0.27273 0.10111,-0.517187 0.179123,-0.775242 0.09654,-0.312708 0.102994,-0.64181 0.135347,-0.964822 0.05678,-0.202446 0.04238,-0.414713 0.0258,-0.621811 -0.0049,-0.0215 -2.65e-4,-0.0462 0.01074,-0.06528 0,0 3.301492,-2.202528 3.301492,-2.202528 v 0 c 0.02829,0.04893 0.04335,0.09929 0.04837,0.156581 0.03418,0.243932 0.05132,0.491035 0.04406,0.737329 -0.129691,0.302772 -0.03689,0.660591 -0.127288,0.978743 -0.06591,0.262304 -0.190789,0.477625 -0.199679,0.74 -0.02389,0.284496 -0.105955,0.559948 -0.230391,0.816683 -0.192844,0.307517 -0.16207,0.731756 -0.342246,1.055346 -0.0677,0.452695 -0.22583,0.87553 -0.337397,1.316599 -0.155077,0.518055 -0.403122,0.999452 -0.566994,1.514588 -0.148759,0.602059 -0.339447,1.191024 -0.437877,1.805561 -0.08979,0.757446 -0.278908,1.489824 -0.415698,2.238519 -0.163359,0.831346 -0.284027,1.668993 -0.462698,2.497554 -0.123518,0.88721 -0.262239,1.77042 -0.336719,2.663769 -0.09851,0.855058 -0.06277,1.721723 -0.194318,2.574844 -0.128408,0.890294 -0.266245,1.776638 -0.330126,2.674866 -0.08247,0.902993 -0.01807,1.812248 -0.03652,2.718056 0.0013,0.976558 0.0048,1.953179 -0.0078,2.929683 -0.0195,1.094994 -0.05191,2.191822 -0.197483,3.278722 -0.165586,1.180491 -0.386876,2.354551 -0.449312,3.54739 -0.117637,1.17652 -0.307578,2.341944 -0.494967,3.508883 -0.19908,0.996858 -0.357719,2.002335 -0.615474,2.986932 -0.268168,0.950047 -0.473879,1.916022 -0.684905,2.879936 -0.246013,0.967058 -0.491506,1.933893 -0.737455,2.900823 -0.190987,0.842539 -0.392041,1.681636 -0.633156,2.511179 -0.188489,0.698519 -0.285766,1.41147 -0.435081,2.118051 -0.177384,0.7354487 -0.275359,1.4891672 -0.51658,2.2103923 -0.296984,0.8520456 -0.701641,1.6569954 -1.136041,2.446856 -0.342728,0.7178834 -0.7214054,1.4115733 -1.045782,2.1376428 -0.2489252,0.5502064 -0.5388371,1.0786031 -0.8165015,1.61426 C 8.1672544,-1.581411 7.8107072,-0.95676941 7.4926701,-0.31294821 7.1268916,0.24479345 6.8206787,0.83799986 6.4519819,1.3939794 6.2431383,1.8101928 5.96953,2.1860149 5.7677059,2.6038158 5.4903776,2.9620748 5.8490414,2.5260812 5.5316261,2.8289815 5.3146281,3.036055 5.1447921,3.2969897 4.9075825,3.4865478 4.3532725,3.9396653 3.8744005,4.4789602 3.3050304,4.9153904 2.7958477,5.3762681 2.2581271,5.8061789 1.7594536,6.276153 1.5780659,6.4663461 1.3913944,6.7397295 1.1782381,6.8931084 c -0.85643767,0.616249 -7.6799862,5.3974336 -0.29182214,0.21667 -1.5050955,1.05206 -2.87384066,2.1263292 -4.46081406,2.9837066 -0.7187618,0.435205 -1.4406192,0.864438 -2.1956395,1.235202 -0.9129607,0.438774 -1.8562399,0.806817 -2.7690233,1.245973 -0.74735,0.318629 -1.5116461,0.617029 -2.3024651,0.807738 -0.72645,0.14809 -1.464683,0.238538 -2.176081,0.456526 -1.053489,0.2546 -2.105753,0.515061 -3.16601,0.740478 -1.294746,0.256162 -2.590244,0.508122 -3.89723,0.695532 -1.076947,0.149976 -2.155402,0.289287 -3.234677,0.421169 -0.770041,0.112162 -1.544008,0.216061 -2.303134,0.387993 -0.652939,0.16579 -1.311924,0.310483 -1.975607,0.426188 -0.731994,0.143917 -1.466273,0.271637 -2.200341,0.404431 -0.876631,0.142137 -1.755902,0.273376 -2.637036,0.3839 -1.101606,0.145817 -2.205011,0.26297 -3.316149,0.308597 -1.157374,0.0373 -2.316517,0.0078 -3.472554,-0.05774 -0.845566,-0.06562 -1.688186,-0.195167 -2.537961,-0.179075 -0.907072,-0.0013 -1.814448,-0.0019 -2.72099,-0.03679 -0.886805,-0.04385 -1.770733,-0.122849 -2.647972,-0.263639 -0.859593,-0.09844 -1.721361,-0.178181 -2.579945,-0.28589 -0.879983,-0.06063 -1.753256,-0.169257 -2.625221,-0.301678 -0.725651,-0.08672 -1.434501,-0.245298 -2.143874,-0.419203 -0.719858,-0.201825 -1.429754,-0.440616 -2.138608,-0.677752 -0.742991,-0.248795 -1.482543,-0.507733 -2.22705,-0.75203 -0.845667,-0.274617 -1.668621,-0.612976 -2.496342,-0.936853 0,0 3.11972,-2.453227 3.11972,-2.453227 z"
         id="path310"
         style="opacity:1;fill:#2b0000;fill-opacity:1;stroke-width:0.13229167;stroke-miterlimit:4;stroke-dasharray:0.39687504, 0.39687504;stroke-dashoffset:0" />
      <path
         inkscape:connector-curvature="0"
         d="m -51.659668,-8.8598894 c 0.366805,1.0610983 0.6085,2.1526103 0.823247,3.2524039 0.217499,1.4996477 0.497688,2.9869156 0.772715,4.4767896 0.355434,2.02687234 0.768617,4.0424549 1.233098,6.0469779 0.406037,1.6963549 0.714776,3.4120957 1.036222,5.125659 0.121809,0.641416 0.229669,1.28565 0.313407,1.933186 0.172832,1.398357 0.01708,0.313836 -3.358399,2.054749 -0.0551,0.02842 0.003,-0.12406 1.52e-4,-0.185994 -0.0091,-0.199761 -0.04192,-0.435756 -0.06477,-0.628637 -0.320991,-1.817902 -0.566335,-3.6474505 -0.778879,-5.4809997 -0.37528,-3.053326 -0.554091,-6.1249903 -0.673439,-9.1974219 -0.02235,-1.4693159 -0.128953,-2.935523 -0.264162,-4.398219 -0.145058,-1.4949884 0.177538,-0.7105094 3.31908,-2.4266763 0.07527,-0.041121 0.03244,0.168455 0.04853,0.2527062 0.02363,0.1236954 0.04709,0.2474251 0.07063,0.371139 0.401954,1.8163751 0.766364,3.6406851 1.163027,5.4581371 0.587985,2.93964254 1.083334,5.8978694 1.461217,8.8717569 0.295767,1.8803593 0.40886,3.7835627 0.653367,5.6694627 0.04375,0.286723 0.09579,0.572484 0.167303,0.853688 0.0154,0.06056 0.09621,0.224536 0.0524,0.179983 -0.03249,-0.03304 -0.04877,-0.0788 -0.07316,-0.118205 -1.08393,0.697447 -2.134005,1.450549 -3.25179,2.092338 -0.06766,0.03885 0.01189,-0.155646 0.01453,-0.233627 0.0043,-0.128368 0.0019,-0.256908 0.0064,-0.385268 0.02933,-0.835456 0.08226,-1.670534 0.117633,-2.505786 0.162909,-3.1825858 0.03229,-6.3663064 -0.168305,-9.5433887 -0.16023,-2.34662921 -0.440111,-4.6771665 -0.912159,-6.9811317 -0.518185,-1.8889979 -1.218206,-0.5355616 2.954833,-2.7198372 0.102313,-0.053554 -0.07222,0.2206148 -0.08853,0.3349387 -0.02976,0.2085234 -0.03279,0.4199995 -0.04919,0.6299993 -0.02753,2.839384 0.469648,5.65477285 0.872005,8.4570701 0.474617,3.1583842 0.929057,6.3193586 1.442488,9.4717045 0.206488,1.119902 0.318614,2.27724 0.675894,3.364678 -0.595142,-1.269524 0.09946,0.127806 -3.300858,1.974191 -0.09415,0.05113 0.02332,-0.213149 0.02823,-0.320175 0.0084,-0.18337 0.01319,-0.367006 0.01175,-0.550561 -0.0057,-0.732107 -0.04093,-1.059209 -0.0924,-1.832258 -0.318947,-3.455922 -0.858745,-6.8889961 -1.358525,-10.3226368 -0.408468,-2.7625304 -0.871637,-5.5214361 -1.566623,-8.2279119 -0.154245,-0.5295344 -0.176094,-0.6278403 -0.336881,-1.1063684 -0.555569,-1.6534527 -0.971783,0.042058 3.095588,-2.4955579 -0.0078,0.08428 -0.02976,0.1684496 -0.02329,0.2528358 0.05394,0.703408 0.328308,1.4402779 0.506769,2.1141082 0.305962,1.1552422 0.344515,1.2897908 0.671995,2.4972512 0.919672,3.29261254 1.815415,6.5917074 2.728228,9.8862117 0.536116,1.8921491 0.891563,3.8519711 1.666443,5.6679541 0.0463,0.09378 0.09036,0.188704 0.138904,0.281345 0.08878,0.169426 0.237071,0.365297 0.217529,0.378873 -3.327885,2.312283 -2.579228,3.257007 -3.460341,1.996694 -0.658783,-1.264172 -1.106411,-2.632718 -1.542049,-3.986525 -0.870462,-2.9405394 -1.356412,-5.9711536 -1.803536,-8.9987622 -0.304828,-2.07842902 -0.498895,-4.1702248 -0.657149,-6.264132 -0.01197,-1.5011426 -0.08324,-1.0239031 3.501145,-1.983396 0.247511,-0.066254 0.156187,0.4883017 0.221683,0.7360152 0.354576,1.3410459 0.60768,2.7103282 0.876699,4.0699531 0.670246,3.5341507 1.399016,7.0564639 2.201349,10.5629762 0.309309,1.3843847 0.698309,2.7455257 1.2031,4.0705617 0,0 -3.305546,2.196438 -3.305546,2.196438 v 0 c -0.519317,-1.339003 -0.920188,-2.715307 -1.233876,-4.117596 -0.806338,-3.5095208 -1.537725,-7.0352524 -2.207975,-10.5732977 -0.264629,-1.34950203 -0.518284,-2.7057191 -0.856974,-4.0394361 -0.06038,-0.2377731 -0.369545,-0.5274574 -0.202858,-0.7074508 0.922016,-0.9956112 2.098413,-1.7234165 3.194662,-2.5231646 0.05674,-0.041394 -0.01542,0.1396207 -0.02313,0.209431 0.155526,2.0856204 0.340149,4.1698121 0.642131,6.24022427 0.440899,3.00821193 0.914721,6.01977613 1.7684,8.94425273 0.419203,1.3194402 0.858024,2.6461932 1.47531,3.8880682 0.847845,1.21835 0.138739,0.102695 -3.110924,2.453865 -0.0399,0.02887 -0.04226,-0.08923 -0.06831,-0.131027 -0.03971,-0.06371 -0.07815,-0.128284 -0.113619,-0.194445 -0.05286,-0.09861 -0.10083,-0.199763 -0.151244,-0.299644 -0.797274,-1.826281 -1.163369,-3.801975 -1.696455,-5.7133962 -0.913314,-3.2950705 -1.80832,-6.5950437 -2.729377,-9.88797907 -0.454599,-1.67370383 -0.97294,-3.34697383 -1.271886,-5.05487243 3.678019,-2.4988335 3.165637,-3.3716648 4.015629,-0.5289709 0.712957,2.7157627 1.17471,5.48970987 1.590041,8.264472 0.502027,3.4424884 1.040352,6.8845085 1.374381,10.3479016 0.05891,0.811009 0.111903,1.609005 0.104524,2.421668 -0.0011,0.120914 0.09048,0.285771 -0.0028,0.362744 -3.169399,2.616054 -2.415676,3.373125 -3.430277,2.227638 -0.401826,-1.09464 -0.494356,-2.286402 -0.713492,-3.42274 -0.514142,-3.154556 -0.972126,-6.3171865 -1.446451,-9.4779572 -0.407332,-2.826893 -0.902387,-5.663258 -0.91489,-8.5264253 0.01055,-0.2197735 0.01979,-0.4396105 0.03164,-0.6593179 0.0079,-0.1471586 -0.08724,-0.3490542 0.02774,-0.4412509 2.708334,-2.1717397 3.216116,-3.532505 3.861244,-1.3392414 0.484466,2.3189829 0.778671,4.6640802 0.941791,7.02806081 0.20849,3.18848579 0.347619,6.38424499 0.190183,9.57899889 -0.03326,0.832154 -0.09083,1.663512 -0.123974,2.495378 -0.0041,0.10415 6.62e-4,0.644557 -0.0034,0.647845 -1.053444,0.849125 -2.186956,1.593816 -3.280433,2.390722 -0.276098,-0.342257 -0.274942,-0.824918 -0.373332,-1.237837 -0.270896,-1.883055 -0.343317,-3.794003 -0.655671,-5.6731163 -0.369026,-2.9640397 -0.863683,-5.9110323 -1.441913,-8.84143029 -0.400276,-1.81945491 -0.759186,-3.64769391 -1.167718,-5.46544761 -0.0349,-0.1726803 -0.12513,-0.5916586 -0.107309,-0.6054381 2.384807,-1.8442886 3.197431,-3.6049029 3.376466,-1.8359278 0.140718,1.4685936 0.255782,2.9412326 0.275863,4.4170335 0.114097,3.0636765 0.285298,6.1270964 0.657493,9.1718393 0.207239,1.833409 0.442811,3.6648866 0.778097,5.4797533 0.0058,0.04931 0.111635,0.8396 0.08988,0.855324 -4.07571,2.945411 -3.246996,3.572105 -3.384654,2.13246 -0.07321,-0.641072 -0.181999,-1.277768 -0.299921,-1.911916 -0.318061,-1.708706 -0.62527,-3.4191552 -1.026813,-5.1109937 -0.469589,-2.0093913 -0.886925,-4.0302232 -1.243331,-6.0629349 -0.269781,-1.48931311 -0.56931,-2.9720143 -0.770275,-4.4729717 -0.211481,-1.089324 -0.431592,-2.175383 -0.804733,-3.2237283 0,0 3.324902,-2.1670248 3.324902,-2.1670248 z"
         id="path312"
         style="opacity:1;fill:#2b0000;fill-opacity:1;stroke-width:0.13229167;stroke-miterlimit:4;stroke-dasharray:0.39687504, 0.39687504;stroke-dashoffset:0" />
      <path
         inkscape:connector-curvature="0"
         d="m -31.503362,-13.317663 c 0.734997,1.70703 1.424027,3.4337092 2.10584,5.1625919 1.337466,3.382682 2.47668,6.8371878 3.588538,10.2989379 0.916652,3.0192979 1.805162,6.0468932 2.720092,9.0666862 0.342082,0.836144 0.492085,1.776552 0.919077,2.580211 -0.737478,-1.311375 0.10405,0.05281 -3.297549,2.026637 -0.0901,0.05228 -0.03296,-0.205761 -0.05329,-0.307922 -0.03558,-0.178731 -0.07222,-0.35732 -0.114408,-0.534607 -0.132782,-0.558003 -0.283139,-1.111678 -0.4239,-1.667721 -0.723511,-2.730069 -1.530842,-5.4371427 -2.30255,-8.1539055 -0.722905,-2.6202216 -1.5641,-5.20315026 -2.530311,-7.7432878 -0.604866,-1.5845419 -1.266764,-3.1468536 -2.01749,-4.6678611 -0.142237,-0.4625896 -0.510675,-0.8681932 -0.631714,-1.3391065 -0.0094,-0.036589 0.03352,0.067709 0.05029,0.1015656 1.084453,-0.7254611 2.130787,-1.5114247 3.253359,-2.1763827 0.06473,-0.03834 0.02998,0.147523 0.04871,0.220392 0.03541,0.137718 0.07582,0.274103 0.113662,0.411176 0.197054,0.7137769 0.3522,1.4297765 0.501611,2.155129 0.445357,2.5592167 0.694769,5.1467173 0.895342,7.73489525 0.146589,2.43891855 0.222676,4.88022895 0.378722,7.31869505 -0.0089,0.6919277 0.155043,1.3890545 0.132966,2.081067 -1.108194,0.5946166 -2.16607,1.2944497 -3.324582,1.7838547 -0.12723,0.05375 0.05254,-0.271436 0.06902,-0.408566 0.02397,-0.199544 0.03947,-0.400098 0.05228,-0.600671 0.06479,-1.0139254 0.02768,-2.0141854 -0.01781,-3.0282592 -0.211243,-3.2265672 -0.648488,-6.43287533 -1.135393,-9.6276926 -0.377777,-2.1384286 -0.863515,-4.2595138 -1.515467,-6.3315055 -0.695915,-1.5528047 -1.582994,0.1307015 3.048717,-2.4015247 0.07128,-0.03897 -0.07824,0.148706 -0.08091,0.229904 -0.01233,0.37555 0.162129,1.4562799 0.197996,1.7111319 0.656471,3.8666578 1.371295,7.721973 1.977728,11.5969572 0.485228,3.2539067 0.994347,6.5045272 1.592453,9.7397309 0.125579,0.661482 0.145169,0.770821 0.263798,1.376132 0.36576,1.866291 0.375576,0.480465 -3.190883,2.635252 0.05549,-1.960059 -0.31178,-3.919516 -0.63753,-5.845283 -0.652192,-3.6363036 -1.68276,-7.1919384 -2.758667,-10.72178166 -0.370468,-1.20785464 -0.794214,-2.39858544 -1.253424,-3.57531454 -0.193619,-0.4961493 -0.37079,-0.9773973 -0.681899,-1.4105281 -1.221691,0.5009303 -1.29843,0.5390568 3.071817,-1.9528975 0.08543,-0.048712 -0.115276,0.1659705 -0.135028,0.2623079 -0.0365,0.1780699 -0.03692,0.3628178 -0.03036,0.5444728 0.02347,0.6501977 0.144936,1.1479503 0.265184,1.7966213 0.712943,3.1635065 1.626155,6.2767659 2.484358,9.4026381 0.699198,2.5557374 1.345993,5.1252225 2.032148,7.6843627 0.138353,0.471249 0.294272,0.937911 0.485539,1.39052 0.02882,0.0682 0.05766,0.136541 0.09141,0.202441 0.01291,0.02521 0.07223,0.05511 0.04816,0.07005 -1.083067,0.672103 -2.195449,1.295771 -3.293171,1.943656 0.01066,-0.09559 0.03071,-0.190601 0.032,-0.286779 0.01003,-0.747948 -0.107241,-1.513562 -0.196506,-2.252758 -0.03255,-0.269602 -0.32313,-2.556465 -0.340109,-2.690296 -0.472411,-3.6316501 -0.800118,-7.2803547 -1.130868,-10.9270856 -0.188617,-1.7629055 -0.358405,-3.5291977 -0.601359,-5.2858034 -0.251521,-1.3631439 -0.09033,-0.3311367 3.340185,-2.0781513 0.08693,-0.044273 -0.02804,0.1939872 -0.02598,0.2915259 0.0039,0.1859465 0.02299,0.3714273 0.04396,0.5562309 0.08632,0.7610395 0.162462,1.1030002 0.303856,1.8947235 0.601887,3.0506987 1.481592,6.03580723 2.327544,9.0250565 0.512538,1.8333905 0.95812,3.6832328 1.394336,5.5357473 0.379513,1.4143412 -0.02334,0.8105672 -3.310086,2.1953542 -0.156993,0.06614 -0.08898,-0.328899 -0.13512,-0.49289 -0.07524,-0.267438 -0.152675,-0.534255 -0.229012,-0.801381 -0.103831,-0.370784 -0.207659,-0.7415685 -0.311486,-1.112353 -0.937956,-3.5159605 -1.915825,-7.0211076 -2.883215,-10.5290486 -0.34366,-1.1842829 -0.686507,-2.3694813 -1.065835,-3.5430142 -0.04388,-0.1357524 -0.214151,-0.8551889 -0.427244,-0.9677321 1.08793,-0.6605852 2.118382,-1.4267788 3.263792,-1.9817582 0.125421,-0.060767 -0.03953,0.2774871 -0.03377,0.4167346 0.01069,0.2586435 0.04921,0.515493 0.08295,0.7721468 0.174051,1.3239141 0.437965,2.6357976 0.678312,3.9486151 0.612831,3.20980065 1.10232,6.4407626 1.663176,9.6594612 0.292023,1.6683434 0.562129,3.3433224 0.953522,4.9919624 0.07835,0.31405 0.0881,0.358301 0.163687,0.644819 0.02363,0.08958 0.137501,0.33679 0.07623,0.267292 -0.04286,-0.04862 -0.04663,-0.199064 -0.102092,-0.165515 -1.107969,0.670187 -2.146062,1.449618 -3.21909,2.174428 -0.183785,-1.690727 -0.534979,-3.374353 -0.854855,-5.0464192 -0.693627,-3.6654263 -1.631392,-7.2758855 -2.588081,-10.87934109 -0.477686,-1.81134801 -1.058495,-3.59258651 -1.615531,-5.38039991 -0.06918,-0.2109523 -0.128472,-0.4252013 -0.19786,-0.636061 1.117686,-0.6819159 2.223363,-1.3839216 3.35306,-2.0457503 0.01365,-0.00802 0.04137,0.1938178 0.01884,0.2069809 -1.1229,0.6559206 -2.254848,1.2962307 -3.382273,1.9443435 0.01464,-0.3485806 -6.08e-4,-0.6858371 -0.09199,-1.0228739 -0.04635,-0.064106 -0.0305,-0.1889522 -0.08565,-0.2495074 -0.0091,-0.010028 0.01136,0.027215 0.0071,0.040092 -0.0045,0.013547 -0.05308,0.021458 -0.05977,0.023045 -0.02253,1.3868532 -0.032,0.1103418 3.161101,-2.0431526 0.04136,-0.0279 -0.07933,0.0612 -0.113599,0.09747 -0.179649,0.1901484 -0.277746,0.4499851 -0.394293,0.6795587 -0.345336,0.6543966 -0.615351,1.3219086 -0.756121,2.0483724 -0.121463,0.9634167 0.198414,1.8768854 0.603676,2.7345878 0.169998,0.2632181 0.509532,1.180002 0.859989,1.2565486 -1.079077,0.6713087 -2.13854,1.3752247 -3.237228,2.0139289 -0.04875,0.028342 0.04804,-0.1050952 0.0506,-0.1614276 0.0045,-0.099327 -0.01228,-0.1989217 -0.0298,-0.2967937 -0.09496,-0.5306139 -0.281328,-1.0501259 -0.441255,-1.5628884 -0.432363,-1.2923917 -0.859775,-2.5862227 -1.233905,-3.8969447 -0.607544,-2.1956924 -0.440424,-0.9071293 3.036821,-3.169367 0.505457,1.1522154 0.976557,2.3189327 1.45472,3.4829353 0.76449,1.9146043 1.554242,3.8191757 2.256287,5.7579788 0.356145,1.00253536 0.180108,0.51327051 0.527595,1.46798241 0,0 -3.309368,2.19067589 -3.309368,2.19067589 v 0 c -0.349407,-0.9568339 -0.173091,-0.4671907 -0.528359,-1.469136 -0.695059,-1.93535031 -1.486264,-3.8333415 -2.246632,-5.7434532 -0.488228,-1.1865954 -0.953513,-2.3830412 -1.49617,-3.546303 3.581429,-2.5585452 2.995482,-3.4341202 3.630392,-1.1377506 0.369215,1.3085762 0.79305,2.5998566 1.227932,3.8878033 0.20424,0.6470941 0.445236,1.3054938 0.546648,1.9796416 0.01463,0.097356 0.103941,0.2336271 0.02633,0.2941822 -1.078915,0.8416396 -2.255635,1.5497678 -3.383453,2.32465035 -0.471034,-0.35941265 -0.731485,-0.93899825 -0.999182,-1.44972085 -0.445673,-0.9209537 -0.794522,-1.9008381 -0.733785,-2.9404098 0.111561,-0.7652623 0.331094,-1.4674427 0.697423,-2.1513429 0.696819,-1.3978731 1.710671,-4.0924725 3.9121,-3.1401015 0.209921,0.112863 0.314532,0.283188 0.373515,0.509857 0.114358,0.3677792 0.185582,0.7289539 0.151231,1.1164733 -1.126969,0.736854 -2.250503,1.478989 -3.380906,2.2105646 -0.01667,0.010795 0.0021,-0.039666 0.002,-0.059518 -1.84e-4,-0.040042 -0.03683,-0.097335 -0.0039,-0.1200626 1.100764,-0.7588727 2.223334,-1.4856169 3.335002,-2.2284267 0.05552,0.2116878 0.134858,0.4174067 0.192887,0.6284489 0.558292,1.7930389 1.143219,3.5785927 1.624698,5.3944572 0.960091,3.61157044 1.904664,7.2293136 2.60314,10.9027197 0.330147,1.7150397 0.636754,3.4336216 0.922739,5.1565386 -3.130804,2.299716 -3.094638,3.56952 -3.664873,1.258911 -0.399441,-1.654638 -0.676635,-3.336007 -0.966758,-5.0126102 -0.565039,-3.2169656 -1.047576,-6.4481128 -1.661451,-9.65675448 -0.291071,-1.58611622 -0.628162,-3.17561382 -0.798994,-4.78108952 -0.01889,-0.1775487 -0.171451,-0.4185391 -0.03565,-0.5344663 1.041557,-0.8891296 2.257661,-1.5506594 3.38649,-2.3259891 0.308938,0.3224821 0.412149,0.7224924 0.549182,1.1432751 0.383276,1.1769143 0.725842,2.3669255 1.073428,3.55464 0.967515,3.50743043 1.946238,7.0119001 2.882435,10.5278528 0.4763,1.7050702 0.138107,0.504264 0.540654,1.913972 0.0481,0.1684549 0.27155,0.3862017 0.143381,0.5056319 -0.987679,0.9203398 -2.164218,1.6146988 -3.26204,2.4003918 -0.08338,0.05967 0.04913,-0.884607 -0.09722,-0.291819 -0.439142,-1.8461749 -0.87131,-3.6936968 -1.384959,-5.5212823 -0.849521,-3.0008407 -1.734365,-5.99668331 -2.348267,-9.0572034 -0.153673,-0.8343132 -0.323845,-1.6751246 -0.392475,-2.5226618 -0.123616,-1.5265452 2.976663,-3.9845614 3.430741,-2.3972361 0.259752,1.7603946 0.411133,3.5358149 0.612309,5.303221 0.328293,3.6426325 0.654749,7.2872202 1.123268,10.9149725 0.226986,1.7888531 0.493445,3.5759681 0.593383,5.3777031 -3.752461,2.531862 -3.165477,3.391183 -4.106613,0.523267 -0.68615,-2.558405 -1.334043,-5.1268204 -2.03091,-7.6824599 -0.859386,-3.135921 -1.775006,-6.25837738 -2.50135,-9.4289958 -0.14245,-0.7252282 -0.249973,-1.1487494 -0.308144,-1.8653813 -0.01662,-0.2046817 -0.01556,-0.4106148 -0.01226,-0.6159421 0.0025,-0.1521962 -0.09018,-0.3616536 0.02951,-0.4556892 3.233365,-2.5401825 2.316913,-3.0152551 3.712184,-2.13029 0.332394,0.4662593 0.529638,0.9605195 0.739124,1.4943402 0.464667,1.1840633 0.894406,2.382086 1.268447,3.5981004 1.08472,3.54378417 2.120805,7.1144738 2.786102,10.7642976 0.338466,1.9679947 0.679924,3.9519111 0.704263,5.9539791 -1.120206,0.757394 -2.216835,1.55089 -3.360621,2.272183 -0.03647,0.02299 -0.05476,-0.06854 -0.06959,-0.109021 -0.03342,-0.09123 -0.13475,-0.624605 -0.13743,-0.638188 -0.117637,-0.596252 -0.142042,-0.730626 -0.265758,-1.379199 -0.601451,-3.238103 -1.115198,-6.4914882 -1.598497,-9.7492234 -0.603781,-3.87680192 -1.314647,-7.7341305 -1.98006,-11.6006402 -0.308425,-2.0702296 -0.04433,-0.1908572 -0.231375,-1.764829 -0.01984,-0.1669362 -0.202184,-0.3960707 -0.06966,-0.4995016 2.45515,-1.9161018 2.988283,-3.3023308 3.807544,-1.5740018 0.668269,2.0873358 1.15797,4.2277276 1.5489,6.3833489 0.493223,3.2064589 0.932783,6.4246045 1.157269,9.6626043 0.06351,1.2354269 0.10437,2.4566536 0.0033,3.6911492 -0.0122,0.1488889 0.06988,0.3529303 -0.04724,0.4456588 -1.090576,0.8634439 -2.307186,1.5544958 -3.460777,2.3317458 -0.158012,-0.613169 -0.01799,-1.4891616 -0.151551,-2.1106732 -0.157876,-2.437085 -0.241249,-4.8764004 -0.376219,-7.3146733 -0.193712,-2.57390108 -0.441084,-5.1458733 -0.868788,-7.6928821 -0.174014,-0.8594381 -0.360976,-1.704922 -0.603213,-2.5476041 -0.02596,-0.090313 -0.15237,-0.2096452 -0.08049,-0.2701792 1.023553,-0.862031 2.153871,-1.5886701 3.230807,-2.3830041 0.363922,0.40228 0.442111,1.0127191 0.743464,1.4595897 0.760148,1.5301965 1.427406,3.1039276 2.038572,4.6992831 0.975114,2.5487815 1.822476,5.14168221 2.54948,7.772429 0.771591,2.720631 1.580054,5.431102 2.308823,8.1635622 0.186531,0.73932 0.384918,1.474491 0.549047,2.219013 0.02548,0.115599 0.165063,0.266647 0.0777,0.346524 -3.020245,2.761446 -2.25143,3.43797 -3.342434,2.319102 -0.471752,-0.809831 -0.602551,-1.798931 -0.967274,-2.652178 -0.913699,-3.017972 -1.805041,-6.0425188 -2.716496,-9.0611977 -1.108223,-3.45421738 -2.241505,-6.9019578 -3.574409,-10.2775622 -0.678167,-1.7243319 -1.366902,-3.4450945 -2.096341,-5.1483921 0,0 3.294255,-2.213335 3.294255,-2.213335 z"
         id="path314"
         style="opacity:1;fill:#2b0000;fill-opacity:1;stroke-width:0.13229167;stroke-miterlimit:4;stroke-dasharray:0.39687504, 0.39687504;stroke-dashoffset:0" />
      <path
         inkscape:connector-curvature="0"
         d="m -19.863468,-15.154586 c 1.245785,0.788998 2.356969,1.751756 3.458615,2.725412 1.886532,1.684695 3.685836,3.4613558 5.444262,5.2781464 1.6832685,1.778246 3.1453322,3.7336385 4.41629,5.8221614 0.9750292,1.64850763 1.6836786,3.4301059 2.3716456,5.2115534 0.4247409,1.1225663 0.900377,2.2248257 1.3482028,3.3381236 0.1409727,0.2729521 0.2602548,0.5825754 0.4814835,0.8051588 -0.8526409,-1.2910846 0.026061,-0.1059895 -3.281463,2.0799744 -0.048892,0.03231 -0.026696,-0.1142896 -0.045008,-0.1699606 C -5.7033547,9.8328779 -5.743365,9.7318785 -5.7809675,9.6300589 -5.981609,9.0867344 -5.9181831,9.2579992 -6.1602927,8.6533681 -6.8783666,6.6850454 -7.740178,4.7746426 -8.5844449,2.8584164 -9.5534813,0.72223936 -10.681228,-1.3373911 -11.992125,-3.2820415 c -0.973198,-1.4254903 -2.221558,-2.6238014 -3.381388,-3.8920922 -0.982916,-1.1658997 -1.907535,-2.376379 -2.59828,-3.7391153 -0.282051,-0.603666 -0.487362,-1.237898 -0.589068,-1.896171 -0.189717,-1.515271 0.190201,-0.603803 3.326757,-2.446888 0.06763,-0.03974 0.125741,0.09388 0.190257,0.138499 0.08047,0.05565 0.163054,0.108175 0.24458,0.162261 1.052658,0.686022 2.052548,1.447189 3.070461,2.183022 1.251696,0.906687 2.5717287,1.711785 3.8483089,2.581669 1.2747122,0.8924896 2.4583601,1.9040446 3.5054434,3.0545005 0.6371166,0.7040668 1.188966,1.4781556 1.6427714,2.3113444 0.8049524,1.568741 -0.2876709,1.0256732 -3.1985399,2.7283277 -0.04314,0.025241 -0.4534377,-0.2322512 -0.6135026,-0.3279404 -1.3817971,-0.9097698 -2.6128715,-2.0340426 -3.8422742,-3.135966 -1.918581,-1.8281438 -3.576923,-3.8989555 -5.141214,-6.0310312 -1.005406,-1.467673 -1.934567,-2.991676 -2.782805,-4.55575 -0.06222,-0.122232 -0.125653,-0.243855 -0.186658,-0.366699 -0.26093,-0.525407 -0.0164,-0.04176 -0.212474,-0.453967 -0.01193,-0.02511 -0.06253,-0.05796 -0.03946,-0.07345 3.364246,-2.257613 2.701911,-3.290993 3.455249,-1.920023 0.57345,1.056484 1.178203,2.09532 1.771497,3.140792 0.869997,1.474671 1.772901,2.927011 2.565193,4.446074 0.856607,1.5916062 1.5611159,3.2564386 2.2382984,4.9301293 0.4510563,1.1308371 0.8944901,2.2674474 1.2498123,3.432638 0.5206259,1.8045509 0.1383135,1.0349706 -3.2655507,2.81661386 -0.110212,0.0576845 -0.20442,-0.14235906 -0.29995,-0.22203304 -0.130586,-0.10891043 -0.251709,-0.22868731 -0.377566,-0.34302964 -1.389793,-1.29936878 -2.511669,-2.84291088 -3.630406,-4.37216278 -1.215038,-1.6537437 -2.200654,-3.4504788 -2.942572,-5.3608897 -0.222599,-0.728752 -0.600943,-1.418987 -0.77099,-2.164236 -0.305504,-1.503683 -0.167767,-0.491675 3.388217,-2.30066 0.03465,-0.01762 1.419923,1.492501 1.473602,1.552011 1.572543,1.763559 3.024431,3.6272363 4.4531438,5.5076433 1.4309778,1.8653469 2.7320002,3.8252188 4.005834,5.7997063 0.7847594,1.15599893 1.3694621,2.42569464 1.9661002,3.6838677 0.9613053,2.056847 0.3167962,1.1530568 -3.0078045,3.1795297 C -7.245849,3.9804746 -7.8106947,3.0065486 -8.3683491,2.0676112 -9.4999905,0.06446668 -10.383971,-2.0629209 -11.257792,-4.1871599 c -0.454237,-1.1254951 -0.847114,-2.2780916 -1.321496,-3.3954958 -0.775832,-1.1233758 -0.306954,-0.4037859 3.325151,-2.0498117 0.129368,-0.058626 0.110527,0.2618079 0.1721749,0.389763 0.09584,0.198919 0.1969823,0.3952849 0.3001169,0.5905209 0.3035961,0.574712 0.6171962,1.1440927 0.9220015,1.7181618 1.1552131,2.2606873 2.5425452,4.3882971 3.8894252,6.5363883 0.9416891,1.5509187 1.9384459,3.0719924 2.7487483,4.6976135 0.2680996,0.6044592 0.6259856,1.1943027 0.78047845,1.8433362 0.31537804,1.4208707 0.13477875,0.4197271 -3.45028835,2.1287528 -0.097618,0.046535 -0.1496827,-0.1569746 -0.213487,-0.2442924 -0.093543,-0.1280134 -0.1715532,-0.2666815 -0.2573284,-0.4000236 0,0 3.2605794,-2.2626531 3.2605794,-2.2626531 v 0 c 0.074001,0.1166522 0.14031384,0.238551 0.22200394,0.3499512 0.0575125,0.07843 0.2688246,0.1552654 0.19425443,0.2177018 -2.90722047,2.4342354 -4.37893347,1.7423738 -3.12066247,2.3148977 0.066876,-0.300773 -0.59436,-1.4201907 -0.700405,-1.7204081 -0.7984463,-1.6169799 -1.7939014,-3.124065 -2.7264386,-4.6650592 -1.3517536,-2.15624565 -2.745277,-4.2912506 -3.9056392,-6.5599759 -0.411554,-0.7759356 -0.849865,-1.5411952 -1.23658,-2.3300372 -0.06773,-0.1381681 -0.303207,-0.3132376 -0.192146,-0.4197456 2.9868178,-2.8643687 2.447441,-3.5627257 3.2844873,-2.3451529 0.4898655,1.1127899 0.8643858,2.2770465 1.325544,3.4015468 0.8654256,2.1071708 1.7383257,4.2185193 2.8570925,6.20707733 0.4991206,0.84327206 1.0033873,1.79204937 1.7207627,2.46755437 -1.0739967,0.7193095 -2.1860219,1.3848477 -3.2219847,2.1579258 -0.053562,0.039968 0.084931,0.1099688 0.1457484,0.1376786 C -6.3102189,4.6453328 -6.81892,3.7789388 -6.7583225,3.8060507 -7.3450572,2.5623714 -7.9211636,1.3074183 -8.6950222,0.16510889 -9.9631463,-1.8009622 -11.258221,-3.7525765 -12.683351,-5.6096022 c -1.422157,-1.8712947 -2.867316,-3.726053 -4.433594,-5.4802008 -0.497253,-0.549532 -0.452006,-0.510061 -0.923637,-0.996148 -0.09518,-0.0981 -0.18792,-0.19885 -0.288541,-0.291365 -0.04095,-0.03765 -0.179896,-0.0652 -0.135025,-0.09808 3.14433,-2.304084 4.202536,-1.312243 3.074398,-2.284137 -0.0667,0.310586 0.657928,1.725734 0.709961,2.069515 0.718855,1.882622 1.688661,3.6485726 2.883432,5.2743948 1.102408,1.5065957 2.2065881,3.0295611 3.5815721,4.3042575 0.1166601,0.1019916 0.2278962,0.2105395 0.3499802,0.3059694 0.082323,0.064352 0.3398097,0.1027113 0.2618687,0.1723046 -3.726267,3.32723066 -2.723057,3.42830943 -3.187988,1.79304158 -0.344393,-1.15641698 -0.784347,-2.28201798 -1.2299,-3.40248338 -0.670269,-1.6629407 -1.366851,-3.3177215 -2.217026,-4.898562 -0.78699,-1.5165735 -1.689354,-2.9637385 -2.55711,-4.4342475 -0.593596,-1.047734 -1.200807,-2.087612 -1.775071,-3.146012 -0.741971,-1.367367 -0.234577,-0.268594 3.09431,-2.564077 0.03281,-0.02262 0.04228,0.06774 0.05986,0.10351 0.07087,0.144161 0.119271,0.298829 0.201514,0.437753 0.05898,0.119965 0.120492,0.23867 0.180737,0.358003 0.835724,1.550138 1.759046,3.056898 2.751749,4.510955 1.548368,2.109729 3.1895785,4.1597475 5.0930968,5.9641238 1.2095507,1.0811192 2.4176699,2.1932211 3.7899816,3.0664361 0.1013725,0.052599 0.1989799,0.113202 0.30412,0.1577975 0.073006,0.030967 0.2883138,0.016404 0.2280153,0.067905 -4.1910978,3.5799527 -2.4816964,3.3427246 -3.1425277,2.0328969 -0.4343294,-0.8073152 -0.9703276,-1.5531041 -1.587156,-2.2320435 -1.0309039,-1.1239976 -2.1969544,-2.1100917 -3.450296,-2.9797322 -1.282531,-0.8674629 -2.602484,-1.6794876 -3.855241,-2.5908706 -1.01432,-0.731777 -2.009617,-1.490594 -3.060528,-2.169854 -0.08086,-0.05321 -0.160163,-0.108886 -0.242594,-0.159639 -0.04634,-0.02853 -0.186119,-0.04427 -0.143423,-0.07803 5.569093,-4.402664 3.086833,-3.502237 3.144348,-2.130491 0.06411,0.621278 0.260665,1.216062 0.515874,1.784347 0.666369,1.334534 1.576761,2.511679 2.535732,3.6496515 1.174261,1.2815411 2.4325425,2.4972989 3.4153505,3.9400162 1.3244645,1.9638327 2.46643,4.0422962 3.447632,6.19883026 0.8459813,1.91998334 1.7138993,3.83261124 2.4313038,5.80564084 0.1751092,0.4329854 0.3418602,0.8674471 0.5055182,1.3047769 0.029446,0.078682 0.1496933,0.1796415 0.087659,0.236294 C -5.2816714,10.747893 -4.4501257,11.463739 -5.563712,10.34497 -5.8023353,10.072069 -5.9717506,9.7467322 -6.127114,9.4215831 -6.5703016,8.3047478 -7.0551718,7.2044278 -7.4780235,6.0793956 -8.1550738,4.3188026 -8.8498087,2.556548 -9.8099552,0.926458 -11.063794,-1.1380566 -12.50988,-3.0686894 -14.175128,-4.8234272 c -1.752137,-1.8086573 -3.545646,-3.5767883 -5.425963,-5.2530798 -1.089758,-0.961184 -2.194269,-1.904638 -3.426492,-2.682385 0,0 3.164115,-2.395694 3.164115,-2.395694 z"
         id="path316"
         style="opacity:1;fill:#2b0000;fill-opacity:1;stroke-width:0.13229167;stroke-miterlimit:4;stroke-dasharray:0.39687504, 0.39687504;stroke-dashoffset:0" />
      <path
         inkscape:connector-curvature="0"
         d="m -5.843822,-4.6255321 c 0.8102838,1.379003 1.625936,2.7587733 2.4638582,4.12235641 0.7752371,1.29398711 1.5727019,2.57437199 2.3659068,3.85729419 0.18239053,0.2090182 0.23674652,0.5277697 0.46478296,0.7002701 0.0242623,0.018362 0.0576633,0.0528 0.0835051,0.036766 0.0271357,-0.016827 0.0375708,-0.1124188 0.0106892,-0.095202 C -1.5319762,4.6853828 -2.5817185,5.4163366 -3.6450366,6.1265259 -3.331,5.4286238 -3.8911044,4.0283933 -4.0996146,3.3454455 -4.6650265,1.6407748 -5.2790265,-0.04957138 -5.9280785,-1.724233 c -0.068972,-0.16587 -0.1411526,-0.3304408 -0.2069174,-0.4976099 -0.04876,-0.1239467 -0.090231,-0.250645 -0.1365673,-0.3755178 -0.0254,-0.068432 -0.1410388,-0.1660657 -0.078854,-0.2042848 3.4891556,-2.144432 2.7637713,-3.2190504 3.5742112,-1.6886369 0.7788249,1.669788 1.4148514,3.4028353 2.04570805,5.13270491 C -0.16041857,2.0538767 0.2708602,3.5159165 0.81522453,4.936139 0.85629315,5.0366119 0.8964913,5.1374446 0.93843304,5.237555 1.059935,5.5275674 0.98165538,5.3558052 1.0770959,5.5274748 c 0.00836,0.015028 -0.012541,-0.05312 -0.027083,-0.043924 -3.3568454,2.124546 -2.8156217,3.3637511 -3.3522364,1.9719211 C -2.8244684,6.3012911 -3.4055252,5.1765235 -4.0658617,4.0955234 -5.0420366,2.4843749 -6.2776487,1.0623374 -7.5439709,-0.32311879 -9.0489844,-1.8455101 -10.549225,-3.3726004 -12.055738,-4.8935154 c -1.098249,-1.0845164 -2.202112,-2.162503 -3.282966,-3.2646963 -0.576387,-0.5311643 -1.142969,-1.0783861 -1.791679,-1.5212536 -0.410316,-0.2621518 -0.403426,-0.1432931 -0.661842,-0.5731827 6.530498,-4.905364 1.960382,-2.329577 3.801411,-1.949307 1.365687,0.519358 -2.990611,2.2165784 -3.134513,2.3094763 -0.03508,0.022648 -0.04944,-0.067342 -0.07599,-0.099563 -0.116517,-0.1414223 -0.20293,-0.2289543 -0.333391,-0.3691993 -0.663331,-0.559152 -1.27536,-1.166778 -1.86812,-1.79923 -0.450148,-0.439484 -0.927907,-0.849347 -1.399992,-1.264825 -0.144632,-0.08063 -0.303967,-0.20574 -0.478854,-0.20711 0.06718,0.221017 -0.24185,-0.09859 -0.198628,-0.286399 -0.0292,-0.191399 -0.160914,-0.419129 -0.272335,-0.604911 -0.05524,-0.08878 -0.111175,-0.177332 -0.17354,-0.261319 3.047862,-2.691024 2.040435,-2.792013 3.748928,-2.27934 0.293841,0.03565 0.567643,0.158268 0.851464,0.238226 0,0 -3.090775,2.489594 -3.090775,2.489594 v 0 c -0.280985,-0.08706 -0.561748,-0.172522 -0.849363,-0.235617 -0.05359,-0.01463 -0.26262,-0.07362 -0.316674,-0.08079 -0.03786,-0.005 -0.14369,0.02643 -0.114568,0.0016 2.968853,-2.518859 2.212917,-3.467028 3.013734,-2.421935 0.06986,0.09559 0.134967,0.194527 0.197215,0.295244 0.155919,0.257053 0.279033,0.522978 0.397336,0.797753 0.01974,0.233698 -0.459304,-0.436298 -0.10695,-0.147937 0.209351,0.09352 0.412567,0.200668 0.588909,0.349689 0.481214,0.423778 0.968389,0.84192 1.422257,1.295371 0.594413,0.632468 1.217264,1.229493 1.869898,1.801694 0.02037,0.0222 0.490681,0.532318 0.467572,0.55173 -0.985684,0.82799 -2.119905,2.6780249 -3.240186,2.4100575 -1.568727,-0.6491255 0.0043,-0.8050635 2.804724,-2.3861605 -0.06588,-0.09469 -0.139039,-0.184705 -0.197649,-0.284056 -0.02167,-0.03674 0.07456,0.04145 0.111419,0.06292 0.139088,0.08104 0.275111,0.16727 0.407757,0.258504 0.658519,0.469445 1.246317,1.028361 1.835452,1.580462 1.080759,1.1013566 2.185659,2.1774514 3.2818436,3.2631453 1.510149,1.5247937 3.0153345,3.054469 4.5212158,4.5834722 1.2818189,1.405464 2.5312158,2.84877669 3.52177608,4.4805626 0.67123733,1.0955179 1.26174763,2.2352106 1.79405754,3.404616 C 1.6822879,6.6995049 1.2228522,5.5151928 -2.1400787,7.8444125 -2.1618803,7.8595202 -2.2882347,7.6146351 -2.3619,7.4416849 -2.4055695,7.3391615 -2.4473128,7.2358285 -2.4900192,7.1329003 -3.0419797,5.7128604 -3.4658211,4.2455448 -4.0399484,2.8328391 -4.66314,1.118908 -5.2937373,-0.59659477 -6.0553537,-2.254757 c -0.8100324,-1.5361973 -0.30979,-0.2989342 3.0074949,-2.7479519 0.062698,-0.046289 0.060359,0.1437693 0.087238,0.2169213 0.043574,0.1185915 0.078899,0.2401861 0.1248437,0.3578807 0.066466,0.1702594 0.1414859,0.3370527 0.2122302,0.505579 0.6587384,1.680935 1.2675314,3.38359751 1.84459032,5.0941182 0.3069246,0.9944099 0.68015378,2.0147782 0.62749641,3.0715478 C -3.0792886,6.3049556 -3.0447049,7.6832019 -4.2780575,5.6116837 -5.0707968,4.3281318 -5.8697776,3.0483316 -6.6444723,1.7536566 -7.489136,0.38059878 -8.3084421,-1.0103449 -9.1279758,-2.3973886 c 0,0 3.2841671,-2.2282758 3.2841671,-2.2282758 z"
         id="path318"
         style="opacity:1;fill:#2b0000;fill-opacity:1;stroke-width:0.13229167;stroke-miterlimit:4;stroke-dasharray:0.39687504, 0.39687504;stroke-dashoffset:0" />
      <path
         inkscape:connector-curvature="0"
         d="m -8.7571675,-27.966298 c 0.9385247,0.303318 1.832483,0.7465 2.6626396,1.276059 1.0716286,0.67673 2.0037478,1.540533 2.9246062,2.404173 1.1127449,1.066771 2.17500202,2.183583 3.26931603,3.269364 1.07602867,1.051438 2.13703957,2.117672 3.16608617,3.215118 0.8126518,0.865418 1.5910136,1.765269 2.4535394,2.581995 0.5894387,0.515443 1.200486,1.025462 1.860468,1.449935 0.2901473,0.24016 0.6229508,0.416031 0.9232847,0.641848 0.2494676,0.12101 0.5076242,0.2424 0.7275962,0.410321 0.1335484,0.110191 0.2617364,0.228523 0.3693715,0.364596 -3.7945297,2.6584165 -2.5031064,2.84576 -4.0518397,1.237578 -0.7241354,-0.863931 -1.4272524,-1.747769 -2.1155554,-2.641034 -1.1918156,-1.487067 -2.3122281,-3.02972 -3.44816368,-4.55966 -1.30553882,-1.797656 -2.65933232,-3.560284 -4.10018172,-5.251699 -0.8991071,-1.021627 -1.8346764,-2.02521 -2.9128905,-2.861153 -0.3369442,-0.246341 -0.6739414,-0.49589 -1.0348515,-0.706716 -0.1724105,0.08368 -0.2249356,-0.1075 -0.3874321,-0.138782 -0.5120534,-0.239696 -1.0638842,-0.40872 -1.6105637,-0.559032 -0.735465,-0.140682 -1.461733,-0.321599 -2.193356,-0.481828 -0.143153,-0.05532 -0.311134,-0.0424 -0.454967,-0.09473 -0.08125,-0.02956 -0.227248,-0.23508 -0.2008,-0.254704 1.081497,-0.802373 2.26205,-1.46181 3.3930746,-2.192713 0.5955109,0.343223 1.1890534,0.682564 1.8030798,0.992693 1.2568053,0.561091 2.5386559,1.060555 3.8005491,1.611008 1.5312866,0.723193 2.96779415,1.6252 4.32981886,2.627262 1.49425554,1.072388 2.64423254,2.502657 3.77866274,3.928875 0.9374266,1.177305 1.7692872,2.43215 2.6452856,3.65434 0.4273576,0.48609 0.8007747,1.037151 1.280324,1.475189 0.1857269,0.128294 0.3374178,0.201269 0.4471564,0.403056 0.1122125,0.177104 -0.027726,-0.152855 0.2307722,0.239856 -3.7312149,2.467221 -2.4403473,2.693828 -4.8209014,1.366308 -1.3674169,-0.773467 -2.6997051,-1.607963 -4.00079361,-2.487943 -1.10668059,-0.768369 -2.13665589,-1.636424 -3.19319269,-2.469933 -1.2973764,-1.179674 -1.0496021,-0.356844 2.94896904,-2.534158 0.0964168,-0.0525 0.14829631,0.16193 0.22337448,0.24203 0.11530541,0.123021 0.23184114,0.24488 0.34776304,0.367321 1.09677464,1.262433 2.30760844,2.414672 3.62243414,3.446089 1.2891453,0.986399 2.6737204,1.82389 4.08364,2.621727 0.8228409,0.451221 1.6558657,0.888111 2.5069907,1.283963 0.343037,0.134379 0.658569,0.342172 0.906065,0.616159 0.911535,1.161933 -1.5777284,1.465921 -3.1502874,2.545767 -0.021722,0.01492 -0.3243262,-0.121086 -0.4301146,-0.166666 -0.9909228,-0.408069 -1.8855637,-1.002652 -2.7944392,-1.562806 -0.992587,-0.674619 -2.01531,-1.302258 -3.0295902,-1.943275 -0.2395035,-0.144642 -0.501732,-0.332531 -0.7918556,-0.356182 3.3565676,-2.728505 2.3494312,-2.991789 4.1571121,-1.553197 0.8083973,0.729806 1.73296,1.276699 2.7190964,1.725896 0.665779,0.272105 1.3717085,0.411795 2.0564505,0.627486 0.154,0.05382 0.313729,0.0953 0.461462,0.165319 -4.4376048,3.137286 -2.7110689,3.097948 -3.4727355,1.225159 -0.1957123,-0.375468 -0.096057,-0.18469 -0.2990056,-0.572318 0,0 3.2800691,-2.234303 3.2800691,-2.234303 v 0 c 0.207261,0.39646 0.101446,0.196488 0.317587,0.599842 0.871037,2.009415 -0.112369,1.646539 -2.9404655,3.441404 -0.1483519,-0.04064 -0.292055,-0.09844 -0.4405577,-0.139076 -0.7007304,-0.21168 -1.4232096,-0.359563 -2.0903406,-0.670258 -1.0035858,-0.479698 -1.9440604,-1.057251 -2.7767042,-1.801485 -0.6528223,-0.528206 -0.034142,-0.02281 -0.5926957,-0.491294 -0.2055548,-0.172413 -0.3839263,-0.306482 -0.3759015,-0.313981 2.8169922,-2.631749 1.8165947,-3.022719 3.0773872,-2.511176 0.3070093,0.11666 0.5985351,0.267824 0.8693203,0.454705 1.0132933,0.639913 2.0314814,1.271939 3.0268624,1.939695 0.8862377,0.545637 1.7622705,1.126537 2.7416023,1.495075 0.0631,0.01566 0.12465,0.04001 0.189282,0.04696 0.04348,0.0047 0.164391,-0.04027 0.130588,-0.01252 -7.7424329,6.3541832 -2.4095972,3.137255 -3.0598081,2.384481 -0.229108,-0.228206 -0.5232558,-0.372036 -0.8173693,-0.498012 -0.8532363,-0.41211 -1.6991621,-0.84123 -2.5246118,-1.306719 -1.4258343,-0.80808 -2.8181802,-1.670849 -4.1203324,-2.670225 -1.32262825,-1.051656 -2.5463288,-2.21673 -3.6564437,-3.492466 -0.1169273,-0.123833 -0.2345055,-0.247057 -0.350782,-0.371504 -0.076131,-0.08148 -0.3081972,-0.170452 -0.2264224,-0.246266 2.74946262,-2.549054 2.2099931,-3.246885 3.45781569,-2.151187 1.04720491,0.829627 2.07330141,1.687372 3.17504231,2.445745 1.2961302,0.869444 2.6203116,1.697812 3.9813176,2.462413 2.3477432,1.328603 2.0986777,0.505614 -1.7105867,3.124147 0.3199182,0.432972 -0.1025208,-0.0091 -0.1399382,-0.09818 -7.937e-4,-5.29e-4 -0.2866548,-0.196194 -0.3576293,-0.27523 -0.4802055,-0.474898 -0.8932307,-1.01637 -1.3234908,-1.535491 -0.8720032,-1.21688 -1.7002416,-2.466149 -2.63378948,-3.638045 -1.11334549,-1.398894 -2.24329362,-2.799553 -3.71610202,-3.843139 -1.3459698,-0.977672 -2.762287,-1.862163 -4.2765767,-2.557909 -1.2684443,-0.552244 -2.5629711,-1.041898 -3.8152807,-1.629881 -0.604729,-0.310888 -1.18422,-0.663549 -1.788404,-0.973894 1.042051,-0.769705 2.135196,-1.474655 3.1261528,-2.309114 0.1583267,-0.133324 -0.3663712,-0.261668 -0.022966,-0.188122 0.049927,0.01069 0.099854,0.0214 0.1497409,0.03228 0.068215,0.01487 0.1363795,0.03 0.2045679,0.045 0.736645,0.166235 1.4747028,0.326702 2.2090856,0.501208 0.5573871,0.169098 1.1143483,0.348147 1.641729,0.598178 0.065442,0.03835 0.1160753,0.120811 0.1919102,0.122267 0.018415,2.64e-4 -0.036925,-0.04015 -0.021855,-0.05073 0.044267,-0.03111 0.2218373,0.101589 0.2511558,0.110844 0.366133,0.231196 0.7194655,0.482256 1.0636514,0.744903 1.0856542,0.868185 2.0484597,1.877311 2.95931693,2.924802 1.44477315,1.69958 2.80514157,3.468081 4.11542167,5.273183 1.1345783,1.527984 2.253742,3.068568 3.4440363,4.553815 0.6799156,0.881676 1.3728118,1.755672 2.0906554,2.606214 1.6193581,1.694802 0.9632104,1.240248 -2.3985669,3.387905 -0.090101,-0.101668 -0.1898147,-0.194611 -0.3017123,-0.272264 -0.2444592,-0.141734 -0.4961652,-0.270632 -0.7353776,-0.420661 -0.3002175,-0.214588 -0.6237817,-0.395475 -0.9122331,-0.627181 -0.6663214,-0.456767 -1.3055097,-0.961089 -1.9018276,-1.505551 -0.8623168,-0.827379 -1.65010835,-1.727663 -2.46641142,-2.599727 -1.02778453,-1.092346 -2.08498548,-2.155809 -3.15792378,-3.203853 -1.0912104,-1.083387 -2.150147,-2.198296 -3.2624712,-3.259976 -0.9044172,-0.844902 -1.8211429,-1.688333 -2.8782327,-2.342073 -0.8141263,-0.494324 -1.6772893,-0.921491 -2.5943643,-1.189001 0,0 3.0884155,-2.492523 3.0884155,-2.492523 z"
         id="path320"
         style="opacity:1;fill:#2b0000;fill-opacity:1;stroke-width:0.13229167;stroke-miterlimit:4;stroke-dasharray:0.39687504, 0.39687504;stroke-dashoffset:0" />
      <path
         inkscape:connector-curvature="0"
         d="m -2.3948883,-40.986153 c 1.0000694,0.211275 2.01062165,0.362903 3.00887074,0.58468 1.24088256,0.248292 2.50342396,0.352209 3.75059046,0.563493 1.2414355,0.190842 2.4751638,0.437068 3.69561,0.733855 1.0536687,0.210103 2.0795691,0.511631 3.0976651,0.84982 0.780687,0.318739 1.605081,0.522702 2.386684,0.83455 0.497618,0.251292 1.027417,0.408301 1.54749,0.600209 0.42304,0.109622 0.818798,0.265407 1.219155,0.436477 1.461828,0.637716 0.688459,0.09334 -2.985249,2.439516 -0.05926,0.03785 -0.116705,-0.07922 -0.179662,-0.110536 -0.08079,-0.04018 -0.166804,-0.06885 -0.250209,-0.103279 -1.074589,-0.354644 -2.09604,-0.837265 -3.1322009,-1.287319 -1.3052293,-0.501479 -2.6239629,-0.9633 -3.956812,-1.384908 -1.3908034,-0.410407 -2.8241995,-0.627016 -4.2569076,-0.828654 -1.3715074,-0.177374 -2.7540506,-0.233997 -4.1353343,-0.265743 -0.6492399,0.03355 -1.2923811,0.136037 -1.9354059,0.227416 -0.3934222,0.085 -0.3998092,0.03766 -0.5736166,-0.373637 1.5999618,-1.518509 2.8178601,-2.153296 4.53579432,-2.960153 0.80035928,-0.4749 1.68016498,-0.782915 2.51541758,-1.187798 0.7843863,-0.408087 1.6009275,-0.689147 2.469372,-0.843908 0.5972943,-0.02783 1.1758269,0.04656 1.7206754,0.29565 1.2128738,1.203926 -2.0932457,2.05344 -3.0615837,2.702255 -0.031443,0.02107 -1.106879,0.01011 -1.1525858,0.01081 -1.47043245,0.126039 -2.9449633,0.186972 -4.4197746,0.230525 -1.2858617,-0.0075 -2.5798383,0.109699 -3.8629669,7.94e-4 -0.6324203,-0.03049 -1.1986524,-0.18155 -1.7104465,-0.552698 -0.3507925,-0.254665 -0.6132142,-0.602867 -0.8768689,-0.941663 -0.1351518,-0.182149 -0.269531,-0.363196 -0.3352958,-0.58217 -0.5475579,-1.694574 -2.2325248,0.97677 3.1522722,-2.714366 0.7644315,0.329041 1.5783719,0.512177 2.3836894,0.711826 1.3737352,0.334541 2.76386396,0.539524 4.17194205,0.650918 1.43331935,0.146588 2.86954905,0.253063 4.29093575,0.494649 1.0373571,0.199529 2.0405248,0.516732 3.0020868,0.951433 0.4881933,0.191053 0.9525767,0.428813 1.3932032,0.71194 1.3558258,1.038746 -2.2538743,1.971015 -3.1333678,2.516303 -0.033991,0.02107 -0.4050585,-0.09057 -0.4777343,-0.110739 -1.1650292,-0.22746 -2.3594642,-0.240365 -3.5421966,-0.272978 -1.26872472,0.01688 -2.53110735,-0.08751 -3.7929,-0.205123 -0.1114266,-0.01098 -0.222877,-0.02172 -0.3342772,-0.03295 -0.1272778,-0.01283 -0.2596224,-0.0064 -0.3808545,-0.04725 -1.5974774,-0.538083 2.11102047,-2.577753 3.5685227,-2.587942 1.2010734,-0.0033 2.4021574,-6.62e-4 3.6032334,3.7e-4 1.5683521,0.0012 3.1367042,0.0017 4.7050562,0.0019 1.0443529,-0.05333 2.0790009,0.06943 3.1152859,0.174891 0.480714,0.0981 0.959393,0.207583 1.430753,0.34411 1.440852,0.448597 -0.316632,0.563317 -3.00849,2.595375 -0.0544,0.04107 -0.13631,-0.0024 -0.204472,-0.0028 -0.09484,-6.09e-4 -0.189696,-2.65e-4 -0.284541,-3.97e-4 -1.1419179,-0.05648 -2.2677676,0.153266 -3.3958742,0.29491 -0.5617554,0.03665 -1.114298,0.146736 -1.6655256,0.254643 -0.2542619,0.04977 -0.5164878,0.08386 -0.7478262,0.204769 3.8564025,-3.11828 2.0031683,-2.45588 4.8635601,-2.136757 1.2861979,0.126755 2.5707159,0.253567 3.8618769,0.323474 0.815456,0.0397 1.631685,0.06167 2.448057,0.06798 1.57121,0.0097 1.077548,-0.398694 -2.853063,2.57501 -0.05221,0.0395 -0.123192,-0.04504 -0.186661,-0.06111 -0.07455,-0.01888 -0.151055,-0.02903 -0.226583,-0.04354 -0.33699,-0.05257 -0.677588,-0.07483 -1.017315,-0.100887 0,0 3.039882,-2.551488 3.039882,-2.551488 v 0 c 0.349324,0.0333 0.699659,0.06379 1.044218,0.133288 0.07586,0.01492 0.150924,0.03466 0.227576,0.04474 0.04574,0.006 0.172037,-0.02814 0.138359,0.0034 -2.664786,2.494396 -1.647788,2.597145 -3.187145,2.574731 -0.820396,-0.01192 -1.640628,-0.03719 -2.459932,-0.08198 -1.2965478,-0.07878 -2.5875954,-0.208744 -3.8792674,-0.344218 -0.5473965,-0.07695 -1.1368458,-0.140138 -1.6488463,-0.366962 -0.07439,-0.03296 -0.269412,-0.06514 -0.2113412,-0.122133 0.9387707,-0.921302 1.9840284,-1.727417 2.9760439,-2.591126 0.8161602,-0.171595 1.6376279,-0.321048 2.4690466,-0.397178 1.1381524,-0.145731 2.2760754,-0.311653 3.4274284,-0.258447 0.09387,-0.001 0.187764,-6.08e-4 0.281607,-0.003 0.06477,-0.0017 0.241892,-0.05301 0.194172,-0.0092 -2.605254,2.393052 -1.714712,2.864327 -3.081242,2.494061 -0.457409,-0.120351 -0.9189114,-0.230623 -1.3883192,-0.292513 -1.0274432,-0.104696 -2.0550531,-0.185497 -3.0893306,-0.144187 -1.5684102,-3.17e-4 -3.1368232,-7.94e-4 -4.7052335,-0.0021 -1.19949644,-0.001 -2.39906699,-0.0063 -3.5985238,0.0051 -0.1063651,0.003 -0.393991,0.08451 -0.319098,0.0089 0.8898096,-0.898106 1.55269929,-2.472615 2.81506605,-2.54177 0.12449968,-0.0068 0.24811831,0.025 0.37223435,0.03692 0.1109636,0.01065 0.2219669,0.02091 0.332949,0.03137 1.2568846,0.111989 2.5147561,0.19063 3.7774403,0.186796 1.2034044,0.04021 2.4221731,0.06133 3.5991271,0.341595 1.7212203,0.419285 0.4163668,-0.01754 -2.5979305,2.461161 -0.04009,0.03297 0.07339,0.07526 0.09816,0.120871 0.024395,0.04492 -0.1878383,-0.168229 -0.1288971,-0.08304 -0.4323582,-0.262628 -0.8897514,-0.47449 -1.3577331,-0.666071 -0.9456076,-0.400352 -1.9252856,-0.700016 -2.9392562,-0.873449 -1.41709777,-0.217712 -2.8454932,-0.331507 -4.2717746,-0.471649 -1.4214555,-0.129811 -2.8257182,-0.355915 -4.2122936,-0.699769 -0.7909851,-0.198912 -1.5708974,-0.437793 -2.3494365,-0.670256 3.1557409,-2.381831 2.5341394,-3.384527 3.2338221,-1.973269 0.00947,0.170105 0.1397503,0.291861 0.2337435,0.431588 0.2412153,0.305708 0.4759669,0.623731 0.8042672,0.842448 0.4772792,0.298383 1.0244164,0.354411 1.57861,0.387588 1.2783978,0.05474 2.55971933,-0.01497 3.83843204,-0.02963 1.47560766,-0.04861 2.94898226,-0.130471 4.42209496,-0.227822 0.1667907,-0.0049 0.6656361,-0.01311 0.8608166,-0.03975 0.074179,-0.01012 0.2763864,-0.101476 0.2177944,-0.05487 -7.4642503,5.937324 -3.7440261,1.225005 -2.940132,2.445651 0.00987,0.01498 -0.033512,-0.0128 -0.050268,-0.01921 -0.508799,-0.170536 -1.041265,-0.212602 -1.5719927,-0.118379 -0.84287521,0.19616 -1.63207701,0.52781 -2.40589858,0.913572 -0.84413722,0.384978 -1.70067552,0.741738 -2.51577732,1.18741 -1.4688714,0.686837 -3.961974,2.142326 1.8412115,-1.664269 -0.3230483,-0.340619 -0.3154256,-0.274835 0.080568,-0.328177 0.65609258,-0.08948 1.31392611,-0.186008 1.97800911,-0.178098 1.39194119,0.04001 2.78485859,0.108598 4.16532479,0.301465 1.4478979,0.214281 2.8967429,0.443054 4.2980292,0.879057 1.3428221,0.42751 2.6717281,0.899068 3.9823941,1.417136 1.038235,0.453944 2.074,0.908133 3.139112,1.296145 0.327768,0.170433 0.515033,0.261679 0.486582,0.288242 -2.817045,2.630261 -1.876253,2.999108 -3.31819,2.383207 -0.393053,-0.164713 -0.798985,-0.283349 -1.203563,-0.416797 -0.529876,-0.175446 -1.038373,-0.393107 -1.553258,-0.60746 -0.7900636,-0.279382 -1.5906293,-0.529866 -2.3765794,-0.821871 -1.0097928,-0.332879 -2.0357914,-0.601483 -3.076051,-0.823047 -1.2168029,-0.281205 -2.4422709,-0.526932 -3.6776422,-0.711958 -1.25407734,-0.196075 -2.5210373,-0.312274 -3.7633221,-0.578976 -0.9917113,-0.206493 -1.9901085,-0.377298 -2.9867252,-0.557851 0,0 3.0496801,-2.53977 3.0496801,-2.53977 z"
         id="path322"
         style="opacity:1;fill:#2b0000;fill-opacity:1;stroke-width:0.13229167;stroke-miterlimit:4;stroke-dasharray:0.39687504, 0.39687504;stroke-dashoffset:0" />
      <path
         inkscape:connector-curvature="0"
         d="m -1.3841112,-55.853332 c 0.9420913,0 1.88418523,0 2.8262765,0 1.1841983,0 2.3683965,0 3.5525921,0 1.1298608,-0.01505 2.2538981,0.127919 3.3698815,0.288373 0.8678942,0.0881 1.7265091,0.198819 2.5813041,0.372626 0.396502,0.08809 0.79887,0.124625 1.203986,0.134232 0.431935,0.0037 0.863899,0.0014 1.295845,4.24e-4 0.609192,-0.02903 1.204563,0.007 1.80631,0.09361 0.703975,0.07367 1.376249,0.297974 2.047674,0.509696 0.297516,0.07823 0.595265,0.16057 0.899123,0.211009 1.282451,-0.103416 -1.911191,2.806012 -3.193952,2.349623 -0.46386,-0.179515 -0.936321,-0.313212 -1.431951,-0.395415 -1.436656,-0.281827 -2.901503,-0.350992 -4.3607279,-0.40885 -1.4759331,-0.04029 -2.9463338,-0.181932 -4.4211292,-0.252073 -1.2226211,-0.148188 -2.3722039,0.210702 -3.5340766,0.523509 -0.90558937,0.309938 -1.79390938,0.654996 -2.7230731,0.890075 -0.3013234,0.08347 -0.6089306,0.130841 -0.9215173,0.127925 -1.5226876,-0.245338 2.51022111,-2.107403 3.04821163,-2.523946 0.57932107,0.151929 1.08197387,0.517663 1.58626437,0.828664 0.7137082,0.551602 1.4971289,0.941319 2.3410254,1.246948 1.1881643,0.361405 2.441604,0.433813 3.6711016,0.563669 1.1784224,0.119391 2.3611731,0.132243 3.5357201,0.286037 0.505364,0.130387 1.074557,0.04522 1.560224,0.240921 1.734558,0.574284 -1.647108,3.321281 -2.966614,2.494431 -0.8405553,-0.330624 -1.7016999,-0.554757 -2.5908057,-0.710244 -1.7697688,-0.247911 -3.5595243,-0.28683 -5.3435911,-0.318494 -1.3537036,-0.0031 -2.70283252,-0.135782 -4.0537156,-0.211948 -0.5791306,0.03566 -1.1188436,-0.15541 -1.6683646,-0.291413 -0.033901,-0.0078 -0.073864,-0.0025 -0.1016979,-0.0234 -0.042527,-0.03187 -0.2706555,-0.32495 -0.2124075,-0.374026 2.84238697,-2.394809 1.9692752,-2.339797 3.63190362,-2.429808 0.89828157,-0.210142 1.82810678,-0.235251 2.74617918,-0.271245 1.3472398,-0.07784 2.6759085,-0.30316 4.0057043,-0.51829 1.1951996,-0.273263 2.4069463,-0.439221 3.6286913,-0.525815 1.026679,-0.06117 2.053614,0.07329 3.077559,0.142216 0.650579,0.04335 1.302436,0.06116 1.954303,0.06807 0.111138,0.0461 0.241382,-0.03335 0.354068,0.0017 0.0045,0.0014 0.294778,0.181169 0.229587,0.232568 -3.076139,2.425372 -1.958414,2.434928 -3.484785,2.369984 -1.034201,-0.05339 -2.064509,0.02757 -3.0869041,0.178798 -1.6794612,0.241467 -3.3429548,0.577733 -5.0163518,0.855704 -0.8038703,0.175574 -1.6083624,0.347684 -2.4164978,0.502604 -0.1475184,0.02741 -0.096107,-0.003 -0.1704948,0.05502 1.0691706,-0.783938 2.1011065,-1.62137 3.2075146,-2.351814 0.058489,-0.03861 0.1132522,0.08275 0.1723258,0.120462 0.1948762,0.1244 0.3820345,0.222315 0.5857954,0.334447 1.0288217,0.562596 2.2160256,0.750387 3.3628647,0.919999 1.512424,0.177248 3.041346,0.07196 4.559057,0.02304 1.096036,-0.03696 2.192538,-0.05496 3.289106,-0.06529 0.305298,-2.33e-4 0.610677,-0.0073 0.915977,-0.0032 -3.273613,2.677302 -2.212438,2.724862 -4.344664,1.864418 -0.890937,-0.407034 -1.799834,-0.751236 -2.745375,-1.007922 -1.4164603,-0.319341 -2.8862154,-0.20617 -4.3130737,-0.01917 -0.9268698,0.142933 -1.8543851,0.281533 -2.7858428,0.391122 -2.0036261,0.406178 1.5194782,-2.543723 3.0283652,-2.547063 1.0623365,0.05861 2.1245512,0.15019 3.1894092,0.195685 1.3043141,0.0468 2.6095061,0.05922 3.9145371,0.0655 0.669282,-0.03776 1.314357,0.0094 1.966989,0.150143 0.210674,0.09772 0.573117,0.0051 0.74408,0.174055 -2.919101,2.575369 -1.874452,2.526352 -3.548229,2.521113 0,0 3.016051,-2.579617 3.016051,-2.579617 v 0 c 1.571374,-0.02728 1.216798,-0.513016 -2.597764,2.498677 0.0056,0.01144 0.02877,0.02981 0.01685,0.03433 -0.136811,0.05189 -0.5486,-0.163546 -0.698442,-0.130285 -0.635642,-0.113103 -1.274693,-0.09741 -1.918861,-0.09264 -1.3085154,-0.0086 -2.6172504,-0.02362 -3.9248159,-0.0776 -1.0602172,-0.05164 -2.1173996,-0.158976 -3.1781274,-0.182409 -1.7945761,-0.01035 1.6349795,-2.667951 2.9763296,-2.643809 0.9306878,-0.117445 1.8572242,-0.263922 2.786724,-0.390117 1.4684027,-0.155903 2.9706597,-0.244603 4.4137867,0.138996 0.950997,0.281245 1.869554,0.63855 2.774291,1.04417 2.290366,0.975832 1.504884,0.555015 -1.790662,3.169228 -0.304229,0.0028 -0.608481,0.0029 -0.912699,0.0071 -1.094753,0.01254 -2.189372,0.03451 -3.28359,0.07173 -1.5345017,0.04816 -3.0813458,0.140361 -4.607055,-0.07995 -1.1857752,-0.196924 -2.3983976,-0.419854 -3.4512938,-1.030836 -0.052766,-0.0304 -0.8860181,-0.504609 -0.8343794,-0.55745 4.1255024,-4.221452 1.6222874,-2.356417 3.1529311,-2.655195 0.8086725,-0.160715 1.6132307,-0.34117 2.4232737,-0.494952 1.6743601,-0.286489 3.3420264,-0.615204 5.0256414,-0.845151 1.039897,-0.121872 2.084033,-0.192126 3.131227,-0.127384 1.478897,0.05375 0.0036,-0.03939 -2.847401,2.394078 -0.03847,0.03284 0.07381,0.07353 0.09183,0.120796 0.01969,0.05165 -0.403231,-7.15e-4 -0.393052,0.01934 -0.656609,-0.01286 -1.313011,-0.03689 -1.96813,-0.0844 -1.01079,-0.07172 -2.0260412,-0.190646 -3.0394192,-0.0976 -1.2142284,0.105988 -2.413455,0.304455 -3.6071492,0.550434 -1.3379529,0.218934 -2.6802185,0.416812 -4.03609431,0.483442 -0.91081749,0.04598 -1.82178059,0.10742 -2.71415669,0.307943 -1.138883,0.352075 -4.2696579,3.656908 2.78908404,-2.165385 0.05715,-0.04714 -0.22725062,-0.152006 -0.15366206,-0.160577 0.0364913,-0.0042 0.0708739,0.0194 0.10630958,0.02909 0.52495979,0.155136 1.06880818,0.218223 1.61586334,0.227886 1.3471339,0.0805 2.6933154,0.2018 4.0438757,0.200337 1.7991005,0.03881 3.6055194,0.08477 5.3859538,0.369139 0.919096,0.184916 1.844418,0.40812 2.687,0.831986 1.306766,0.880132 -2.038702,3.114266 -3.283604,2.396865 -0.5064548,-0.06729 -1.0147908,-0.120999 -1.5207164,-0.192738 -1.1740251,-0.135445 -2.3576254,-0.143503 -3.5318753,-0.281426 -1.2545483,-0.138159 -2.5345919,-0.218876 -3.7340513,-0.640952 -0.85654353,-0.331613 -1.64780909,-0.760756 -2.38805504,-1.307377 -0.47567586,-0.291974 -0.94976686,-0.621432 -1.50755346,-0.728848 2.06187935,-1.773937 1.82270661,-2.26068 3.03167515,-2.577603 0.29426694,-0.03844 0.58174465,-0.110287 0.86770635,-0.188939 0.9202578,-0.260154 1.8033312,-0.628139 2.7229646,-0.890193 1.1880162,-0.317214 2.3753445,-0.57476 3.6154492,-0.430254 1.4735625,0.0771 2.9437962,0.213002 4.4192932,0.249901 1.473131,0.06756 2.949916,0.156448 4.398055,0.453597 0.525073,0.113753 1.047475,0.259748 1.524648,0.512645 1.165161,0.922713 -1.736746,3.039766 -3.032728,2.570817 -0.311092,-0.07131 -0.620771,-0.149297 -0.925743,-0.243795 -0.656235,-0.202578 -1.317831,-0.392308 -2.004761,-0.457183 -0.589195,-0.07097 -1.179486,-0.05793 -1.772216,-0.05317 -0.436187,5.29e-4 -0.8727707,0.0052 -1.308595,-0.01543 -0.4179305,-0.02973 -0.8313949,-0.09104 -1.2412583,-0.178959 -0.850437,-0.162219 -1.709285,-0.246115 -2.5675934,-0.356018 -1.1043761,-0.153181 -2.2174041,-0.266261 -3.3340119,-0.245774 -1.18419556,0 -2.36839382,0 -3.5525921,0 -0.9420913,0 -1.8841852,0 -2.8262765,0 0,0 3.0178613,-2.577497 3.0178613,-2.577497 z"
         id="path324"
         style="opacity:1;fill:#2b0000;fill-opacity:1;stroke-width:0.13229167;stroke-miterlimit:4;stroke-dasharray:0.39687504, 0.39687504;stroke-dashoffset:0" />
      <path
         transform="matrix(0.26458333,0,0,0.26458333,-60,-60)"
         inkscape:connector-curvature="0"
         id="path326"
         d="M 206.87165,452.15585 C 121.71974,443.23418 51.422509,391.99742 18.463563,314.83294 14.164236,304.76723 7.5501435,285.15983 8.2260415,284.48393 c 0.1834983,-0.1835 2.3163285,0.37812 4.7396225,1.24803 5.636019,2.02323 17.392976,4.31328 25.824886,5.03025 4.766054,0.40526 7.039008,1.09048 8.241397,2.48452 1.930056,2.23768 2.970091,2.39454 4.661585,0.70304 0.883763,-0.88376 4.605606,-1.0913 13.45,-0.75 28.633987,1.10497 44.461208,0.0178 60.382518,-4.14761 2.87561,-0.75233 4.7223,-0.76908 5.99937,-0.0544 1.36765,0.76538 2.26984,0.64801 3.48718,-0.45367 0.93578,-0.84687 6.09813,-2.10497 12.00063,-2.92464 5.69713,-0.79115 14.93347,-2.40768 20.52519,-3.59229 l 10.16677,-2.15384 4.17462,3.57332 c 5.54904,4.74977 15.77272,10.01007 24.99184,12.85882 6.07088,1.87593 9.78659,2.31855 19.5,2.32284 14.27245,0.006 21.25741,-1.59312 33.5,-7.67093 6.82196,-3.38674 10.28302,-6.00306 17.53176,-13.25276 14.40532,-14.40724 20.19764,-27.42049 21.16857,-47.5582 0.46584,-9.66159 0.21451,-12.89563 -1.55428,-20 -2.76961,-11.12423 -9.03047,-23.40118 -15.68252,-30.75193 l -5.35652,-5.91915 3.4319,-13.74501 c 5.19827,-20.81947 7.99036,-38.1233 9.12613,-56.55867 0.48675,-7.900675 1.0415,-10.791759 2.24092,-11.678576 1.43647,-1.062078 1.4099,-1.249919 -0.26877,-1.900277 -1.69753,-0.657664 -1.81025,-1.573441 -1.27041,-10.32142 1.36615,-22.138538 3.66724,-39.230858 5.59408,-41.552568 0.52549,-0.633175 0.69389,-2.151388 0.37422,-3.373808 -0.84343,-3.225286 4.00462,-21.173347 5.71926,-21.173347 1.90922,0 16.44432,6.234894 27.67036,11.869324 75.92804,38.108821 124.2753,116.523572 124.2753,201.562952 0,68.5731 -31.46589,134.0079 -85,176.7615 -31.38314,25.06332 -69.02189,41.39493 -109,47.29557 -12.89033,1.90257 -40.52606,2.69702 -52,1.49485 z"
         style="opacity:1;fill:#008000;fill-opacity:1;stroke-width:0.50000006;stroke-miterlimit:4;stroke-dasharray:1.50000018, 1.50000018;stroke-dashoffset:0" />
      <path
         transform="matrix(0.26458333,0,0,0.26458333,-60,-60)"
         inkscape:connector-curvature="0"
         id="path328"
         d="m 217.37165,297.52493 c -7.35636,-1.18366 -15.53411,-3.79808 -22,-7.03339 -6.99407,-3.49959 -17.28455,-10.64291 -15.79061,-10.96133 11.63881,-2.48071 31.25448,-11.57043 43.47633,-20.14654 2.57714,-1.80839 7.30214,-3.96566 10.5,-4.79394 7.26238,-1.88105 12.45827,-5.2537 16.33183,-10.601 2.93582,-4.05278 5.98245,-12.2596 5.98245,-16.11513 0,-1.06428 3.4027,-8.66406 7.56156,-16.88841 5.28282,-10.44703 7.99658,-17.11714 9.00508,-22.13345 0.79393,-3.94905 1.78732,-8.70688 2.20752,-10.57295 l 0.76401,-3.39287 5.22322,5.71503 c 6.40903,7.0125 13.74383,21.48836 15.74327,31.0707 9.02351,43.24526 -22.71917,84.27833 -66.50466,85.96914 -5.225,0.20176 -10.85,0.14963 -12.5,-0.11586 z"
         style="opacity:1;fill:#008000;fill-opacity:1;stroke-width:0.50000006;stroke-miterlimit:4;stroke-dasharray:1.50000018, 1.50000018;stroke-dashoffset:0" />
      <path
         transform="matrix(0.26458333,0,0,0.26458333,-60,-60)"
         inkscape:connector-curvature="0"
         id="path330"
         d="m 230.04121,244.05363 c -0.48472,-1.31009 -3.42116,-9.15574 -6.52543,-17.43479 -3.10427,-8.27905 -5.64413,-15.52876 -5.64413,-16.11046 0,-0.5817 -1.0772,-2.64498 -2.39377,-4.58506 l -2.39378,-3.52743 2.64378,-1.22791 c 4.72709,-2.1955 14.34263,-2.42316 20.19831,-0.47821 5.18159,1.72105 14.94546,9.86298 14.94546,12.46278 0,2.8878 -14.4839,28.34298 -17.8671,31.40108 -2.04967,1.85271 -2.09575,1.84494 -2.96334,-0.5 z"
         style="opacity:1;fill:#008000;fill-opacity:1;stroke-width:0.50000006;stroke-miterlimit:4;stroke-dasharray:1.50000018, 1.50000018;stroke-dashoffset:0" />
      <path
         transform="matrix(0.26458333,0,0,0.26458333,-60,-60)"
         inkscape:connector-curvature="0"
         id="path332"
         d="m 168.74528,267.92165 c -4.44367,-6.01661 -9.59541,-17.43935 -11.46952,-25.43094 -2.30177,-9.81517 -1.48651,-27.2993 1.73744,-37.26122 l 2.40849,-7.44217 2.238,2.44217 c 1.23089,1.34319 4.71837,5.81716 7.74994,9.94216 3.03157,4.125 8.13445,10.2 11.33972,13.5 6.83428,7.03625 8.29638,9.59781 15.5892,27.31203 l 5.48047,13.31202 -3.44157,1.43798 c -1.89286,0.79088 -4.24351,1.44329 -5.22368,1.4498 -0.98016,0.007 -6.28107,1.1315 -11.77979,2.5 -5.49872,1.36849 -10.33339,2.48817 -10.74373,2.48817 -0.41033,0 -2.15856,-1.9125 -3.88497,-4.25 z"
         style="opacity:1;fill:#008000;fill-opacity:1;stroke-width:0.50000006;stroke-miterlimit:4;stroke-dasharray:1.50000018, 1.50000018;stroke-dashoffset:0" />
      <path
         transform="matrix(0.26458333,0,0,0.26458333,-60,-60)"
         inkscape:connector-curvature="0"
         id="path334"
         d="m 141.50506,269.52354 c -5.50668,-23.15346 -16.78289,-58.16035 -23.70864,-73.60326 -2.15862,-4.81325 -3.92477,-9.1422 -3.92477,-9.61989 0,-0.47769 2.5875,-1.37771 5.75,-2.00005 6.52744,-1.28452 16.63442,-5.79464 21.77908,-9.71867 1.90901,-1.45606 3.47092,-2.22861 3.47092,-1.71676 0,0.51184 -1.3814,1.95194 -3.06979,3.20022 l -3.06979,2.26959 5.81979,4.49504 c 3.20089,2.47227 8.11047,6.6882 10.91018,9.36873 l 5.09039,4.87368 -2.49422,7.29974 c -3.04443,8.91002 -4.11905,26.36166 -2.22096,36.06791 1.6517,8.44624 6.35173,20.16604 10.51687,26.2244 1.88782,2.74591 3.11405,5.26993 2.72497,5.60893 -0.75673,0.65932 -12.07968,2.59042 -20.70098,3.53051 l -5.24344,0.57175 z"
         style="opacity:1;fill:#008000;fill-opacity:1;stroke-width:0.50000006;stroke-miterlimit:4;stroke-dasharray:1.50000018, 1.50000018;stroke-dashoffset:0" />
      <path
         transform="matrix(0.26458333,0,0,0.26458333,-60,-60)"
         inkscape:connector-curvature="0"
         id="path336"
         d="m 77.457712,282.22398 c -10.230339,-0.51773 -10.744894,-0.64238 -8.215036,-1.99002 1.862423,-0.9921 2.487235,-1.9219 2.015951,-3 -1.781769,-4.07591 -8.049121,-30.51152 -10.920447,-46.06231 -1.641013,-8.88754 -1.918548,-10.25441 -4.034154,-19.86834 -1.193716,-5.42459 -2.099718,-7.49341 -3.434458,-7.84245 -1.532287,-0.4007 -3.679196,-4.28921 -2.368143,-4.28921 0.243392,0 9.184996,-2.25 19.870229,-5 10.685233,-2.75 19.758965,-5 20.163848,-5 1.123682,0 -1.207633,2.08456 -3.829664,3.42431 -1.498403,0.76563 -2.211181,1.88786 -1.990659,3.13419 0.188939,1.06782 0.505269,5.40543 0.702956,9.63913 0.362378,7.76073 2.478261,13.78525 6.428011,18.30237 0.961835,1.1 2.668442,5.6 3.792461,10 1.12402,4.4 3.471647,13.175 5.216953,19.5 7.35959,26.67128 7.82662,28.85873 6.28746,29.44936 -1.57833,0.60567 -12.85138,0.45489 -29.685308,-0.39703 z"
         style="opacity:1;fill:#008000;fill-opacity:1;stroke-width:0.50000006;stroke-miterlimit:4;stroke-dasharray:1.50000018, 1.50000018;stroke-dashoffset:0" />
      <path
         transform="matrix(0.26458333,0,0,0.26458333,-60,-60)"
         inkscape:connector-curvature="0"
         id="path338"
         d="M 17.871654,272.72237 4.3716535,268.35688 3.1184458,261.01426 C 1.5915376,252.06803 0.33283924,216.63975 1.2742173,209.10521 l 0.6817045,-5.45618 8.3992412,-0.18134 8.399241,-0.18134 1.024285,3.19265 c 0.563356,1.75596 2.155348,9.94265 3.537759,18.19265 1.38241,8.25 4.047937,21.975 5.923392,30.5 4.704872,21.3863 4.799831,22.00746 3.356814,21.9581 -0.67375,-0.023 -7.3,-2.00637 -14.725,-4.40738 z"
         style="opacity:1;fill:#008000;fill-opacity:1;stroke-width:0.50000006;stroke-miterlimit:4;stroke-dasharray:1.50000018, 1.50000018;stroke-dashoffset:0" />
      <path
         transform="matrix(0.26458333,0,0,0.26458333,-60,-60)"
         inkscape:connector-curvature="0"
         id="path340"
         d="m 2.8716535,194.07873 c 0,-0.6011 0.9231359,-5.6636 2.0514131,-11.25 C 20.846941,103.98546 76.446404,40.028459 152.37165,13.216117 166.92125,8.0780531 183.13614,4.3928149 202.98529,1.7129095 l 4.61363,-0.6229038 0.0809,4.2908239 c 0.13152,6.9769074 -3.64332,37.4626744 -6.28218,50.7351084 -0.60744,3.05522 -1.83259,4.212814 -7.70273,7.277993 l -4.67675,2.442034 3.89958,5.152228 3.89957,5.152228 -3.36702,9.265617 c -6.59848,18.158192 -11.65378,29.233712 -14.31627,31.365112 -2.35798,1.88764 -2.45023,2.19598 -0.91414,3.05562 1.58027,0.88437 1.5142,1.47227 -0.88039,7.83411 -5.36894,14.26397 -22.7589,34.32667 -35.51054,40.96832 -7.62328,3.97057 -14.44678,5.70197 -29.45729,7.47452 -4.95,0.58453 -13.274996,2.23684 -18.499996,3.6718 -22.110233,6.07219 -41.5563,10.19912 -51.566055,10.94359 -4.36368,0.32455 -11.083955,0.93827 -14.933955,1.36384 -3.85,0.42557 -9.957996,0.57226 -13.573326,0.32598 -5.1344052,-0.34975 -6.9247186,-0.0964 -8.1785715,1.15747 -1.8758212,1.87583 -2.748103,2.03845 -2.748103,0.51233 z"
         style="opacity:1;fill:#008000;fill-opacity:1;stroke-width:0.50000006;stroke-miterlimit:4;stroke-dasharray:1.50000018, 1.50000018;stroke-dashoffset:0" />
      <path
         transform="matrix(0.26458333,0,0,0.26458333,-60,-60)"
         inkscape:connector-curvature="0"
         id="path342"
         d="m 177.63478,168.92165 c -0.80678,-1.2375 -3.15733,-5.33179 -5.22344,-9.09842 l -3.75656,-6.84843 3.52144,-2.90267 c 1.93679,-1.59646 5.65397,-5.93967 8.26041,-9.65157 2.60643,-3.7119 5.03692,-7.09275 5.40109,-7.513 0.36417,-0.42025 3.22785,1.0332 6.36374,3.2299 5.83522,4.08758 20.67019,17.78757 20.67019,19.08876 0,0.39757 -1.6875,1.03409 -3.75,1.41449 -5.84417,1.07789 -16.58291,5.89991 -23.20348,10.41907 -3.31314,2.26153 -6.20223,4.11187 -6.4202,4.11187 -0.21796,0 -1.0564,-1.0125 -1.86319,-2.25 z"
         style="opacity:1;fill:#008000;fill-opacity:1;stroke-width:0.50000006;stroke-miterlimit:4;stroke-dasharray:1.50000018, 1.50000018;stroke-dashoffset:0" />
      <path
         transform="matrix(0.26458333,0,0,0.26458333,-60,-60)"
         inkscape:connector-curvature="0"
         id="path344"
         d="m 248.5043,207.75668 c -1.43954,-1.88734 -5.36642,-4.79501 -8.77841,-6.5 -7.14321,-3.5695 -15.59707,-4.1455 -22.92044,-1.56167 l -4.31767,1.52336 -4.55806,-4.36734 c -7.22986,-6.92733 -8.62018,-8.0385 -15.94117,-12.74033 -3.80149,-2.44147 -7.95729,-5.96186 -9.2351,-7.82308 l -2.32328,-3.38403 3.47074,-2.92282 c 4.53274,-3.81717 18.0053,-10.41683 24.97074,-12.23216 l 5.5,-1.43341 12.5,12.84638 c 10.91965,11.22224 21.84122,20.01007 24.86863,20.01007 0.53059,0 1.13411,0.50822 1.34117,1.12938 0.20705,0.62115 1.70559,-0.27885 3.33008,-2 3.3404,-3.53916 4.436,-3.92526 3.91421,-1.37938 -2.58064,12.59116 -6.68391,24.25 -8.53466,24.25 -0.37513,0 -1.85418,-1.53673 -3.28678,-3.41497 z"
         style="opacity:1;fill:#008000;fill-opacity:1;stroke-width:0.50000006;stroke-miterlimit:4;stroke-dasharray:1.50000018, 1.50000018;stroke-dashoffset:0" />
      <path
         transform="matrix(0.26458333,0,0,0.26458333,-60,-60)"
         inkscape:connector-curvature="0"
         id="path346"
         d="m 209.87165,295.33368 c -8.91806,-2.54713 -13.29225,-4.51521 -21.75,-9.78599 -7.21986,-4.49934 -8.82925,-6.36776 -5.5,-6.38522 3.66857,-0.0192 24.20375,-9.27319 35.23679,-15.87907 6.33227,-3.79136 13.31321,-7.45341 15.51321,-8.13789 13.07445,-4.06781 19.00215,-10.68765 22.81044,-25.47386 0.84994,-3.3 3.88311,-10.725 6.74037,-16.5 6.50396,-13.14557 9.32396,-20.6436 11.00089,-29.25 0.72337,-3.7125 1.64442,-6.75 2.04678,-6.75 1.80306,0 9.16079,9.89498 13.24496,17.81238 5.96609,11.56559 7.89619,19.31434 7.8991,31.71239 0.007,31.06095 -20.06264,58.28453 -49.74254,67.47256 -10.09676,3.12567 -28.61995,3.70097 -37.5,1.1647 z"
         style="opacity:1;fill:#008000;fill-opacity:1;stroke-width:0.50000006;stroke-miterlimit:4;stroke-dasharray:1.50000018, 1.50000018;stroke-dashoffset:0" />
      <path
         transform="matrix(0.26458333,0,0,0.26458333,-60,-60)"
         inkscape:connector-curvature="0"
         id="path348"
         d="m 216.3984,296.36518 c -0.16849,-0.16856 -1.59344,-0.47505 -3.16655,-0.6811 -1.57311,-0.20605 -2.8602,-0.43907 -2.8602,-0.51784 0,-0.0788 -0.95115,-0.32259 -2.11367,-0.54182 -1.16253,-0.21924 -3.41253,-0.93559 -5,-1.5919 -1.58748,-0.6563 -3.11133,-1.28192 -3.38633,-1.39026 -4.84098,-1.90716 -7,-3.06343 -7,-3.74886 0,-0.46188 -0.45,-0.56167 -1,-0.22175 -0.55,0.33992 -1,0.14148 -1,-0.44098 0,-0.58246 -0.675,-1.05902 -1.5,-1.05902 -0.825,0 -1.5,-0.34767 -1.5,-0.7726 0,-0.42492 -1.58744,-1.62748 -3.52764,-2.67235 -1.9402,-1.04487 -3.1777,-2.20121 -2.75,-2.56965 0.4277,-0.36844 4.36025,-1.91444 8.73898,-3.43555 7.75112,-2.69264 22.93717,-10.17274 33.03866,-16.27365 2.75,-1.66089 7.25,-3.83915 10,-4.84058 6.24921,-2.27567 12.34188,-5.99105 15.16473,-9.24761 3.28954,-3.79495 7.24094,-12.21764 7.79458,-16.61469 0.27193,-2.15967 1.06732,-4.29028 1.76755,-4.73468 0.70023,-0.44441 0.88054,-0.8149 0.4007,-0.82332 -0.47985,-0.008 -0.37125,-0.61922 0.24132,-1.35733 0.61258,-0.7381 0.81768,-1.6381 0.45578,-2 -0.36189,-0.36189 -0.13299,-0.65799 0.50868,-0.65799 0.64166,0 1.16666,-0.51528 1.16666,-1.14506 0,-1.1089 5.65904,-13.70917 8.49726,-18.91979 1.80035,-3.30521 6.44318,-20.66137 5.72035,-21.3842 -0.30302,-0.30302 0.14841,-0.55095 1.00317,-0.55095 0.85475,0 2.61725,1.38887 3.91666,3.08637 1.29941,1.69751 2.92506,3.69036 3.61256,4.42857 0.6875,0.73822 1.25,1.82435 1.25,2.41363 0,0.58929 0.47656,1.07143 1.05902,1.07143 0.58246,0 0.82302,0.38185 0.53458,0.84856 -0.28844,0.46671 0.37753,1.81671 1.47994,3 1.1024,1.18329 1.70674,2.15144 1.34297,2.15144 -0.36377,0 -0.2085,0.5625 0.34505,1.25 1.84383,2.29003 6.33739,16.09547 6.90284,21.20739 0.30678,2.77344 0.45063,7.29261 0.31967,10.04261 -0.13096,2.75 -0.29345,6.4625 -0.36109,8.25 -0.0676,1.7875 -0.34798,3.25032 -0.62298,3.25071 -0.275,3.9e-4 -0.59651,1.01289 -0.71447,2.25 -0.22408,2.35017 -0.98747,6.06935 -1.33402,6.49929 -0.11083,0.1375 -0.31401,0.7 -0.45151,1.25 -0.1375,0.55 -0.35954,1.3375 -0.49342,1.75 -0.13388,0.4125 -0.19013,1.0875 -0.125,1.5 0.0651,0.4125 -0.26035,0.75 -0.72329,0.75 -0.46294,0 -1.38101,1.8 -2.04014,4 -0.65914,2.2 -1.58159,4 -2.04988,4 -0.4683,0 -1.13381,1.125 -1.47891,2.5 -0.34511,1.375 -1.06889,2.5 -1.60841,2.5 -0.53952,0 -0.98095,0.44223 -0.98095,0.98272 0,1.01238 -3.16133,4.8095 -8.61777,10.35094 -4.45433,4.52372 -6.66569,6.21608 -11.55792,8.84533 -2.37529,1.27655 -4.54496,2.6014 -4.82151,2.9441 -0.82691,1.02475 -14.95913,5.87629 -18.87152,6.47853 -3.95461,0.60874 -23.1076,1.08902 -23.60453,0.59191 z"
         style="opacity:1;fill:#008000;fill-opacity:1;stroke-width:0.50000006;stroke-miterlimit:4;stroke-dasharray:1.50000018, 1.50000018;stroke-dashoffset:0" />
      <path
         transform="matrix(0.26458333,0,0,0.26458333,-60,-60)"
         inkscape:connector-curvature="0"
         id="path354"
         d="m 233.49877,251.41931 c 1.71991,-1.51121 5.92786,-5.21717 9.351,-8.23547 3.42314,-3.0183 7.17656,-7.2933 8.34094,-9.5 1.80305,-3.4171 2.16758,-3.69072 2.45772,-1.84482 0.46298,2.9455 -3.85741,11.12421 -7.93748,15.02606 -3.34951,3.20319 -11.03165,7.24555 -13.8393,7.28227 -0.92734,0.0121 -0.30615,-1.02937 1.62712,-2.72804 z"
         style="opacity:1;fill:#008000;fill-opacity:1;stroke-width:0.50000006;stroke-miterlimit:4;stroke-dasharray:1.50000018, 1.50000018;stroke-dashoffset:0" />
      <path
         transform="matrix(0.26458333,0,0,0.26458333,-60,-60)"
         inkscape:connector-curvature="0"
         id="path356"
         d="m 259.29395,162.35647 c -3.71059,-1.90406 -6.20084,-4.23167 -9.24929,-8.6452 -7.80043,-11.29344 -16.65487,-20.91533 -24.17301,-26.2682 -4.125,-2.93697 -8.2995,-6.0054 -9.27666,-6.81873 -5.7161,-4.75769 -10.30573,-7.35255 -15.66398,-8.85599 l -6.04468,-1.69606 1.61581,-3.70032 c 0.88869,-2.03517 2.49713,-5.95032 3.5743,-8.700316 4.52365,-11.548768 4.7227,-11.762684 12.22623,-13.139381 6.67616,-1.224896 34.79648,4.212995 50.93762,9.850286 l 11.86864,4.145119 -0.5419,9.571992 c -0.29805,5.26459 -1.23889,15.19698 -2.09077,22.07198 -1.59371,12.86196 -6.35255,35.08142 -7.47366,34.8952 -0.34702,-0.0576 -2.91591,-1.27732 -5.70865,-2.71038 z"
         style="opacity:1;fill:#008000;fill-opacity:1;stroke-width:0.50000006;stroke-miterlimit:4;stroke-dasharray:1.50000018, 1.50000018;stroke-dashoffset:0" />
      <path
         transform="matrix(0.26458333,0,0,0.26458333,-60,-60)"
         inkscape:connector-curvature="0"
         id="path358"
         d="m 263.22581,68.25394 c -8.13596,-0.466936 -10.57496,-0.970777 -12.312,-2.543382 -1.65338,-1.496861 -3.74935,-1.994283 -8.85416,-2.101288 -12.57337,-0.26356 -29.188,-2.480926 -29.188,-3.895393 0,-0.209379 0.63751,-3.004534 1.41669,-6.211456 0.77918,-3.206922 1.70869,-7.56688 2.06558,-9.688795 l 0.64889,-3.858027 8.91929,0.657564 c 5.79311,0.427089 10.58945,1.412673 13.68442,2.811965 4.15289,1.877596 7.02411,2.206319 22.34696,2.55848 l 17.58183,0.404079 -1.1393,6.641984 c -0.62662,3.653091 -1.22594,6.979483 -1.33183,7.391983 -0.10589,0.4125 -0.19253,2.55 -0.19253,4.75 0,3.206748 -0.34704,3.96674 -1.75,3.832286 -0.9625,-0.09224 -6.31563,-0.429743 -11.89584,-0.75 z"
         style="opacity:1;fill:#008000;fill-opacity:1;stroke-width:0.50000006;stroke-miterlimit:4;stroke-dasharray:1.50000018, 1.50000018;stroke-dashoffset:0" />
      <path
         transform="matrix(0.26458333,0,0,0.26458333,-60,-60)"
         inkscape:connector-curvature="0"
         id="path360"
         d="m 268.37165,16.887405 c -4.95,-0.431336 -17.66552,-1.106336 -28.25672,-1.5 -11.6392,-0.432616 -19.27496,-1.111328 -19.30282,-1.715751 -0.0254,-0.55 0.25509,-3.8125005 0.62322,-7.2500005 0.52002,-4.8558499 1.03369,-6.24540566 2.30282,-6.22940356 8.34757,0.1052525 33.12266,2.25965386 40.44592,3.51711076 9.59831,1.6481005 23.51353,4.9549048 24.34363,5.7850088 0.26542,0.265414 -0.0753,2.3444395 -0.75705,4.6200545 -1.40793,4.699274 0.15052,4.476502 -19.399,2.772981 z"
         style="opacity:1;fill:#008000;fill-opacity:1;stroke-width:0.50000006;stroke-miterlimit:4;stroke-dasharray:1.50000018, 1.50000018;stroke-dashoffset:0" />
    </g>
  </g>
</svg>
